iter,loss,accuracy,convergence_score,time,epsilon,best_alpha,auc_attack_before,auc_attack_after,max_norm,noise_multiplier
1,2.222579492628574,0.10262500000000001,4.790138158202171,260.98213934898376,,,0.5218420497537976,0.5215114532909518,1.0,1.0
2,2.281573583185673,0.10191875,1.5472997784614564,522.2673137187958,,,0.5241992173592428,0.5170303315770248,1.0,1.0
3,2.293008255213499,0.14868125,0.4614775595565637,789.3976550102234,,,0.5213340018156501,0.5186139290553685,1.0,1.0
4,2.256977105885744,0.1497875,0.19788695281992355,1053.3555896282196,,,0.5277491644418213,0.5273945766121864,1.0,1.0
5,2.166088139265776,0.1855125,0.07699284868625303,1315.3798360824585,,,0.5327652598627016,0.5329443096564823,1.0,1.0
6,2.1289569355547426,0.20409375000000002,0.037459718684355416,1576.9081356525421,,,0.521184863989687,0.5212601371864973,1.0,1.0
7,2.091620211303234,0.23058125000000002,0.033797036359707516,1839.9573452472687,,,0.5198046635466256,0.5187227157681555,1.0,1.0
8,2.0552830554544927,0.24222499999999997,0.041237176535651086,2102.7423350811005,,,0.5216221488041314,0.521606002787883,1.0,1.0
9,2.020488979667425,0.25349999999999995,0.05421483622243007,2363.200910806656,,,0.5208242953499485,0.5205229509697533,1.0,1.0
10,1.942282109335065,0.28703124999999996,0.07238771539802352,2627.9617552757263,,,0.5220005876559818,0.5219615603474561,1.0,1.0
11,1.856654967740178,0.33055,0.09280228453377883,2889.8625140190125,,,0.5257170588472115,0.5255807920016831,1.0,1.0
12,1.7897842254489658,0.3592625,0.10171573478728532,3154.254722595215,,,0.5251865352259116,0.5238973861806051,1.0,1.0
13,1.7210104309022425,0.3798,0.11236502168079217,3419.032275915146,,,0.52746937242273,0.5265559813071173,1.0,1.0
14,1.668766237050295,0.3975875,0.12001279639080167,3682.4702022075653,,,0.5300786773056607,0.5298324061531784,1.0,1.0
15,1.6259983509778975,0.41098125,0.153386257092158,3948.818677186966,,,0.5313221726912116,0.5291808121740518,1.0,1.0
16,1.5904339704662562,0.423975,0.16529014923920235,4208.966666221619,,,0.5300690238526704,0.527938550859705,1.0,1.0
17,1.555416978523135,0.4337875,0.18161599738523365,4472.948848962784,,,0.5298047881990079,0.5273289438132167,1.0,1.0
18,1.5240969400852917,0.44871875,0.19292325836916766,4736.402472734451,,,0.5287995661290696,0.5247327001985471,1.0,1.0
19,1.4884110759943723,0.46106250000000004,0.18875604091833034,4999.209369421005,,,0.5292674103928962,0.5253648431975015,1.0,1.0
20,1.4633148293942213,0.46843124999999997,0.21696585516134897,5260.091297388077,,,0.5322001379193098,0.527308628174002,1.0,1.0
21,1.4316795710474253,0.47965625,0.2143341913819313,5521.751240730286,,,0.5328903745364918,0.5266729152558219,1.0,1.0
22,1.4043580777943134,0.490175,0.1813897400473555,5786.608035087585,,,0.536055645248446,0.5290752396545301,1.0,1.0
23,1.3796430211514235,0.498,0.23749184037248294,6046.999411821365,,,0.537170291841337,0.5306217943401179,1.0,1.0
24,1.3449805069714784,0.51165625,0.22379734149823585,6313.9002277851105,,,0.5398728056471703,0.530564362747098,1.0,1.0
25,1.3230944894254208,0.5162875,0.23937601149082183,6575.377165555954,,,0.541723612264551,0.5337298249192332,1.0,1.0
26,1.2966157358139754,0.5331250000000001,0.22878542244434358,6843.450753688812,,,0.5430583279112224,0.53355031745985,1.0,1.0
27,1.2706418257206678,0.537525,0.3201241775105397,7104.866750001907,,,0.5436628763451693,0.5354961817742527,1.0,1.0
28,1.2414223551750183,0.5451062499999999,0.36941122338175775,7370.348086357117,,,0.5475894775471779,0.5377763836138308,1.0,1.0
29,1.2127884916961191,0.5538625,0.3434518424794078,7631.520051240921,,,0.550477603288053,0.5386489481372946,1.0,1.0
30,1.1852041706442833,0.56399375,0.28154513450960317,7891.183069705963,,,0.5532982085819553,0.5396142891709597,1.0,1.0
31,1.161036194115877,0.5662625,0.29438480573395887,8152.6889452934265,,,0.5557851406059571,0.5413342250213077,1.0,1.0
32,1.1334241891279815,0.5740000000000001,0.36883161614338555,8415.276065826416,,,0.5600129155092166,0.5456475527948755,1.0,1.0
33,1.1016813581809402,0.5752312500000001,0.45226123332977297,8679.368748664856,,,0.5651796888431532,0.5491396568919004,1.0,1.0
34,1.0808725016191603,0.5856125000000001,0.41179113859931626,8941.771977424622,,,0.570606255603619,0.5524351068279516,1.0,1.0
35,1.0527893841266631,0.588525,0.383978304391106,9202.04132437706,,,0.5735875087785935,0.554902958074675,1.0,1.0
36,1.0314727028831838,0.59385,0.38688841052353384,9464.58441567421,,,0.5773667297726252,0.5589188545551426,1.0,1.0
37,1.0013418801128864,0.596725,0.3348792647322019,9725.341623544693,,,0.583274188487423,0.560556930547603,1.0,1.0
38,0.9817529052495957,0.60035,0.4111179949094852,9986.944547891617,,,0.5875503379746132,0.5652920961822282,1.0,1.0
39,0.9554341105744243,0.6018625,0.4955580770969391,10250.851358652115,,,0.595786484913188,0.5717878266257406,1.0,1.0
40,0.9225313622504473,0.60510625,0.541232329979539,10515.424998521805,,,0.6017099544319868,0.5768124592462278,1.0,1.0
41,0.8958475409075618,0.6107875,0.37608499204119045,10779.866712331772,,,0.6062663465874568,0.576666632851017,1.0,1.0
42,0.8788210891187191,0.61141875,0.44833155249555906,11040.203597784042,,,0.6086498333868688,0.5833526819813757,1.0,1.0
43,0.8522724866867065,0.61278125,0.5525582718352476,11304.254439353943,,,0.6167378715729337,0.5908983472312046,1.0,1.0
44,0.8325733913108706,0.61664375,0.46608928677936395,11565.620599269867,,,0.6260621031934499,0.5922736753441012,1.0,1.0
45,0.8144568052142858,0.61938125,0.5022960919886827,11825.783269405365,,,0.6294776257096881,0.5983388194526986,1.0,1.0
46,0.7729059677571058,0.61860625,0.50838542667528,12089.039304494858,,,0.6350087237010976,0.6039522306139136,1.0,1.0
47,0.7661083417013288,0.6182687499999999,0.5191846535851558,12351.626399040222,,,0.6424788358205568,0.6090159769372592,1.0,1.0
48,0.7403271656483412,0.6127687500000001,0.7432939685881138,12616.898308753967,,,0.6468096408112733,0.6181806151192566,1.0,1.0
49,0.7136261092498899,0.6209125,0.623097884406646,12882.565443277359,,,0.6576568086536635,0.6199868590277665,1.0,1.0
50,0.6817055318504572,0.6201937500000001,0.6427308209240437,13145.601892232895,,,0.6604810584864742,0.6261274250270497,1.0,1.0
51,0.6665979880839586,0.615725,0.7911680810153484,13405.852724075317,,,0.6662620411740974,0.6333611086590227,1.0,1.0
52,0.6429033772088587,0.6203187499999999,0.5813570058594147,13666.422170639038,,,0.6753875783649324,0.6303565943748556,1.0,1.0
53,0.6395175219513476,0.6146875,0.6926355311026176,13929.097523450851,,,0.6766198244496986,0.6417829081822786,1.0,1.0
54,0.6050643519498407,0.62005625,0.5757641995946566,14191.321923017502,,,0.6863432293164861,0.642873552304176,1.0,1.0
55,0.5944625799544155,0.618125,0.6560845404863358,14450.85263967514,,,0.6896845031710885,0.649594709901161,1.0,1.0
56,0.5805449113249779,0.61781875,0.6432529720167319,14711.154570579529,,,0.6924807280956744,0.6564620993376872,1.0,1.0
57,0.5614945192821323,0.61486875,0.6928287667532762,14972.982113838196,,,0.7011852917191439,0.6608502551717814,1.0,1.0
58,0.5314773915335536,0.61319375,0.7030457280576229,15235.035036802292,,,0.7075549666014296,0.6675111266542855,1.0,1.0
59,0.5193136951886117,0.6073187499999999,0.8211275137960911,15494.428738355637,,,0.7130232510110484,0.6734078558828641,1.0,1.0
60,0.48016898473724723,0.6068625,0.8216871352245411,15754.447407245636,,,0.7174994469714857,0.676635960775914,1.0,1.0
61,0.49175941077992325,0.61216875,0.7011684015393257,16015.502391338348,,,0.728819640578049,0.6836752017403873,1.0,1.0
62,0.4759403159841895,0.6094562499999999,0.8293166821201642,16279.962637424469,,,0.7314159719809092,0.6911673359834055,1.0,1.0
63,0.44170622336678206,0.6090625000000001,0.7826028279960155,16541.30497956276,,,0.7404853094950629,0.6953462077487125,1.0,1.0
64,0.4399389026686549,0.6058062500000001,0.8928236645956834,16804.38603568077,,,0.7500521183024149,0.703541345006065,1.0,1.0
65,0.40867285551503296,0.61060625,0.7799247744182746,17063.40828871727,,,0.7553462207643633,0.7017685084396648,1.0,1.0
66,0.3903806477319449,0.60665625,0.6709001411994299,17324.558003902435,,,0.7481532656563433,0.7000209694132908,1.0,1.0
67,0.40723374807275836,0.6041625,0.6617646376291911,17586.819980859756,,,0.7476459981103984,0.7039049004493286,1.0,1.0
68,0.3696376731153578,0.60976875,0.6751686515907447,17848.475234746933,,,0.7603749424458282,0.7087059825280454,1.0,1.0
69,0.36194425844587386,0.6075,0.609579112380743,18107.456478357315,,,0.7677254392773211,0.7127347865655118,1.0,1.0
70,0.34188507464714346,0.6064562499999999,0.5778200104832649,18369.804822683334,,,0.7708443974895143,0.7157799503481328,1.0,1.0
71,0.3437245175708085,0.6048250000000001,0.6488132119178772,18635.061737060547,,,0.7733093170497836,0.7221669479647994,1.0,1.0
72,0.31301303110085427,0.609075,0.6729455341895422,18896.001926898956,,,0.7870724151232831,0.726444682538026,1.0,1.0
73,0.28863680348731574,0.6077250000000001,0.6883269272744655,19158.789100408554,,,0.7901862945290152,0.7297919284377293,1.0,1.0
74,0.28113337312825026,0.60844375,0.6788304780920347,19420.653494119644,,,0.7940485912392661,0.7364508705346953,1.0,1.0
75,0.2874553926056251,0.60453125,0.6972347502907117,19683.36217737198,,,0.7907932156261068,0.7397207532171618,1.0,1.0
76,0.280955159990117,0.603975,0.6682828689614931,19945.17693090439,,,0.7980089972946682,0.7387349816913806,1.0,1.0
77,0.2370544323232025,0.60516875,0.6704052033523719,20205.202981948853,,,0.8078023806983365,0.7480285874925787,1.0,1.0
78,0.23144470762927083,0.606225,0.6635548030336698,20471.03446817398,,,0.8118170581633259,0.7456521762488665,1.0,1.0
79,0.21062761675566435,0.60615,0.6648860566318036,20731.896312713623,,,0.8190998440445068,0.7528129660167924,1.0,1.0
80,0.22386001825798302,0.6019937500000001,0.7584131225943566,20995.837158441544,,,0.8137284851042287,0.7549184144890508,1.0,1.0
81,0.1953613157616928,0.60195,0.6548028834164142,21259.891165733337,,,0.8126686242371801,0.7583208601729367,1.0,1.0
82,0.1938815925270319,0.60253125,0.8333293596903483,21522.99366378784,,,0.8235617678328792,0.7682324157416069,1.0,1.0
83,0.15642722565680744,0.60206875,0.638644140958786,21785.126479148865,,,0.831316825993655,0.7608173907399731,1.0,1.0
84,0.15385256806621328,0.6023812500000001,0.6539411788185437,22047.787913799286,,,0.8376728846278356,0.7701896974202354,1.0,1.0
85,0.14870894161285833,0.6011875,0.5754382240275542,22310.637506484985,,,0.831542098649186,0.7665455135574266,1.0,1.0
86,0.15642016698839142,0.6014187499999999,0.6489386074244976,22575.460015535355,,,0.834856783718178,0.7731827970690214,1.0,1.0
87,0.1351009824662469,0.6011,0.6148664305607477,22843.727539777756,,,0.8380479576596906,0.7764162048432952,1.0,1.0
88,0.1353781375219114,0.6023875000000001,0.562897814810276,23109.352928876877,,,0.839591521079033,0.7750597356710782,1.0,1.0
89,0.14343998015392573,0.5993999999999999,0.6950689608852069,23373.765360832214,,,0.8377809362031791,0.7847432535981471,1.0,1.0
90,0.12443351845722646,0.59955625,0.7310128430525462,23635.65770125389,,,0.8468922357950199,0.7882209111785298,1.0,1.0
91,0.10155226297210902,0.60035625,0.7246272412439188,23898.95177602768,,,0.8450929832690581,0.7940117092577901,1.0,1.0
92,0.10450098915025591,0.6006625,0.6093490146100521,24162.617547035217,,,0.8494678712148706,0.7894549158541393,1.0,1.0
93,0.1040372489253059,0.59948125,0.752127688874801,24427.010281085968,,,0.847707776943138,0.8019164077551612,1.0,1.0
94,0.0888273344375193,0.60020625,0.6045869827270508,24691.708091259003,,,0.8524026427159734,0.7956752690690947,1.0,1.0
95,0.09048987188143656,0.60005625,0.657362284262975,24956.617419958115,,,0.8533680535622004,0.7998752639686488,1.0,1.0
96,0.08757971040904522,0.5987750000000001,0.7161654400328795,25219.370434761047,,,0.8543140950686422,0.8052651896868672,1.0,1.0
97,0.0854777483153157,0.60004375,0.5612650733441115,25485.897170305252,,,0.8560355360298598,0.7961257881897029,1.0,1.0
98,0.07918610428459942,0.598875,0.6861215827365716,25748.794632196426,,,0.8570685502983519,0.8058181838160623,1.0,1.0
99,0.08352196952910163,0.5993124999999999,0.5437733873724937,26012.87477493286,,,0.8552271577012793,0.7948118241984783,1.0,1.0
100,0.07889574770233594,0.599075,0.5903830324610074,26273.97428202629,,,0.856528805854069,0.8005319686833197,1.0,1.0
101,0.0714457459107507,0.59943125,0.5502632896105448,26539.88933491707,,,0.8592904015977637,0.804401711020986,1.0,1.0
102,0.0708997349254787,0.59885,0.6210620700071255,26805.624368667603,,,0.8575352477936313,0.8130324191715219,1.0,1.0
103,0.06294517568894661,0.59845625,0.6023748509585858,27073.56572651863,,,0.8593954606944035,0.8094592184708067,1.0,1.0
104,0.06215291006956249,0.59933125,0.509539861480395,27334.716579437256,,,0.8568656912558241,0.805492582033509,1.0,1.0
105,0.06393239523167721,0.59796875,0.6046631447970867,27601.89011478424,,,0.8592700466565382,0.815057674920638,1.0,1.0
106,0.06298611187376081,0.5984,0.5977170523256063,27862.330980300903,,,0.8629758814516642,0.8178329941790462,1.0,1.0
107,0.057340757729252796,0.5974375000000001,0.6631363277633985,28129.163736581802,,,0.860186637115113,0.8255203281933868,1.0,1.0
108,0.05141413342789747,0.5986875,0.6391363245745499,28393.569860458374,,,0.8649244505451952,0.8252531521721127,1.0,1.0
109,0.051373778289416805,0.5992500000000001,0.4454841587692499,28656.109336853027,,,0.8585357459264373,0.8148794773168857,1.0,1.0
110,0.06606095429160633,0.5968249999999999,0.5499633458753427,28919.866660118103,,,0.8630896242664646,0.8223932449736548,1.0,1.0
111,0.04944824235280976,0.5970625,0.46661048208673794,29182.564066410065,,,0.8636044088794883,0.8219600914148735,1.0,1.0
112,0.0515988384373486,0.59640625,0.5362140720089277,29448.41372013092,,,0.8615394927720904,0.8230446355355021,1.0,1.0
113,0.048948986164759845,0.59664375,0.5396222997456789,29717.506522893906,,,0.8638337219890144,0.824145361011936,1.0,1.0
114,0.045993024183553645,0.5965,0.5274282732357581,29982.971314668655,,,0.8654493136831178,0.8229799944802081,1.0,1.0
115,0.04440095695026684,0.5964375000000001,0.5908407915383578,30248.588241815567,,,0.8622077206804282,0.8311124678519781,1.0,1.0
116,0.04255750949669164,0.595675,0.5726982419689496,30512.729174613953,,,0.8666840867791874,0.8276209115388544,1.0,1.0
117,0.04126831209287048,0.5960812499999999,0.6172485306859017,30776.297255039215,,,0.8699228816857072,0.831222237258205,1.0,1.0
118,0.04150737937306986,0.5962,0.52931815572083,31040.978123903275,,,0.8656682177754957,0.8344291820906434,1.0,1.0
119,0.04181914488435723,0.59564375,0.6025472824772199,31303.689015626907,,,0.8718393684438798,0.8353146001685097,1.0,1.0
120,0.037293428686098196,0.5951875,0.4490117471665144,31569.232263088226,,,0.8658851265583228,0.8267280042400319,1.0,1.0
121,0.04229940228979104,0.5947375,0.504230206583937,31836.615189790726,,,0.861198889930979,0.8297824274071601,1.0,1.0
122,0.0381443479884183,0.5952500000000001,0.49506473715106647,32102.799966573715,,,0.8637787079472099,0.8346414191801066,1.0,1.0
123,0.037280436200671827,0.59425,0.49209707900881766,32366.969395399094,,,0.8744504807148028,0.8337760061665089,1.0,1.0
124,0.03685036477691028,0.59470625,0.5826871862014135,32634.345743894577,,,0.8697089547805217,0.8505955597612871,1.0,1.0
125,0.03180664238461759,0.5942375,0.4859849441796541,32901.72391986847,,,0.8708287605405785,0.8385130519144899,1.0,1.0
126,0.03916162018140312,0.593275,0.6397075432042281,33167.88843584061,,,0.8780641421745068,0.841018618342844,1.0,1.0
127,0.03104784805618692,0.59535,0.5476083621382714,33432.293436050415,,,0.8761241589940658,0.8466467861254396,1.0,1.0
128,0.02975034714327194,0.5941125,0.37637629844248294,33696.19987797737,,,0.8734535447533778,0.8337876347646846,1.0,1.0
129,0.035583316755946726,0.5932875,0.4811412874609232,33958.598903894424,,,0.8703920010816735,0.8394750406527769,1.0,1.0
130,0.030074182100361214,0.5931125,0.52389746842285,34221.30408120155,,,0.8763391918346037,0.8508428671744197,1.0,1.0
131,0.028049926523817704,0.59245625,0.6368160878618558,34485.34976148605,,,0.8807935550979418,0.8635251209470278,1.0,1.0
132,0.02670767186791636,0.5927,0.4781296979635954,34750.09500193596,,,0.8709141568064229,0.8494926173666686,1.0,1.0
133,0.02829011407447979,0.5924937499999999,0.4348915970573823,35015.97505617142,,,0.8730113598274183,0.8448463659663512,1.0,1.0
134,0.02935506465728395,0.5915874999999999,0.44577157571911813,35279.68706703186,,,0.8718589469258446,0.8469334762206017,1.0,1.0
135,0.02666338940616697,0.59306875,0.3724674983570973,35548.015103816986,,,0.8710415657290529,0.8409883250044744,1.0,1.0
136,0.030625868361676113,0.5912875,0.5921471690138181,35811.47523808479,,,0.8781870101725686,0.8583546117056144,1.0,1.0
137,0.02325719910149928,0.5924062499999999,0.4034492192169031,36076.96557378769,,,0.8695503390410384,0.8487370912233905,1.0,1.0
138,0.026229956786846743,0.59078125,0.6227520639697711,36341.11920213699,,,0.8783539575217079,0.8621651591289319,1.0,1.0
139,0.021856237613246773,0.5922499999999999,0.4209550761928161,36605.3478782177,,,0.8662568183751971,0.8519021785125527,1.0,1.0
140,0.02881765926431399,0.58903125,0.5312351944545904,36870.02762413025,,,0.8852537468045245,0.8485789167114732,1.0,1.0
141,0.024037717896862886,0.59119375,0.5258933557818334,37132.056710243225,,,0.8730612893056127,0.8575127058379535,1.0,1.0
142,0.02169551131373737,0.5915812500000001,0.3902075254668792,37397.60051751137,,,0.8767932676153913,0.8536609435654052,1.0,1.0
143,0.02374789419409353,0.590125,0.5446940347552299,37659.253064394,,,0.8694766090136573,0.8610071725892621,1.0,1.0
144,0.021198272545007057,0.5902000000000001,0.47286071156462034,37921.51939868927,,,0.868193851057786,0.8589421957188595,1.0,1.0
145,0.022442775797389913,0.58974375,0.431990206365784,38185.58923316002,,,0.8751471629715757,0.8542938218007132,1.0,1.0
146,0.02085565205925377,0.5892312499999999,0.4267604901144902,38445.909110069275,,,0.8684107635262166,0.8565438015462201,1.0,1.0
147,0.02157133035361767,0.58948125,0.37622566844026245,38709.7577521801,,,0.8657108067632091,0.8549274217363315,1.0,1.0
148,0.02324922111729393,0.58833125,0.5875373748441537,38974.59767580032,,,0.8896763363351665,0.8656747405035574,1.0,1.0
149,0.018580988215398976,0.589725,0.37982529439032076,39239.757865428925,,,0.8736774422675311,0.8582523348565225,1.0,1.0
150,0.023198808060260492,0.5885625,0.5221733557681243,39504.599148988724,,,0.8703262129359166,0.8671882944745248,1.0,1.0
151,0.017622557283903006,0.5890125,0.4416245140135288,39769.09872722626,,,0.8583435027526434,0.8675630751693912,1.0,1.0
152,0.02015549528441625,0.58906875,0.5708314287165801,40035.98845911026,,,0.8734451432834001,0.8699629816888588,1.0,1.0
153,0.017910425110312645,0.58928125,0.3693467125296593,40300.711688518524,,,0.8579722884225757,0.8581284793460454,1.0,1.0
154,0.02033346773532685,0.5884375,0.45591488232215244,40564.56961250305,,,0.8687360291231723,0.8597175584235349,1.0,1.0
155,0.017421748174820097,0.58813125,0.45202420838177204,40829.641013383865,,,0.8597146826241637,0.868532377846038,1.0,1.0
156,0.018929381955240385,0.58800625,0.407350991666317,41094.59761309624,,,0.8714006841365579,0.8587039515913395,1.0,1.0
157,0.018747286585858093,0.58885625,0.377448716511329,41357.011575222015,,,0.8564361930577546,0.8574040509697914,1.0,1.0
158,0.018070075080322566,0.58735625,0.4230460334569216,41617.71512174606,,,0.8715324868664949,0.8670294445488529,1.0,1.0
159,0.016541979456087576,0.5881375,0.3708961139743527,41880.69360542297,,,0.8630999970030026,0.8667191969128611,1.0,1.0
160,0.017633067509450484,0.587875,0.4226129780213038,42144.41072201729,,,0.8675432605927197,0.8663502434911678,1.0,1.0
161,0.0165380997423199,0.587375,0.3554234471172094,42406.5067718029,,,0.8596055359591912,0.8653369555838142,1.0,1.0
162,0.01627164584642742,0.5869625,0.4285308547317982,42669.29655742645,,,0.8608367026652961,0.8717963652889702,1.0,1.0
163,0.016740165717783383,0.5872249999999999,0.36320073815683523,42934.09966492653,,,0.8657780582472481,0.8643227426062782,1.0,1.0
164,0.017282161947514394,0.5859000000000001,0.4474965875347455,43195.142112493515,,,0.8803687856484117,0.8659574784838593,1.0,1.0
165,0.01622337741573574,0.586075,0.36545390052100024,43456.536410331726,,,0.8628459584551101,0.8686500627282714,1.0,1.0
166,0.013908936036750674,0.5864,0.29523016754537823,43719.65957069397,,,0.8654518178201271,0.8676629649659928,1.0,1.0
167,0.015815305380965584,0.58671875,0.36858058714618286,43982.58905506134,,,0.8643978419169008,0.8703520272736088,1.0,1.0
168,0.014919856956112199,0.5861375,0.4448396628101667,44244.35311794281,,,0.8694184378951444,0.8800047774873359,1.0,1.0
169,0.013518324021424633,0.5862375000000001,0.347270609314243,44505.93619298935,,,0.8621692300731802,0.8682545420750662,1.0,1.0
170,0.01526717616216047,0.585175,0.4191555365299185,44769.93805837631,,,0.8671131439695889,0.877001828730811,1.0,1.0
171,0.0136413332176744,0.5854375,0.4060531402627627,45032.873423576355,,,0.8671081455057315,0.8730787222470445,1.0,1.0
172,0.012623715087829623,0.58541875,0.37100598216056824,45296.0773460865,,,0.857397357103546,0.8763787435375078,1.0,1.0
173,0.015483711824344937,0.5851375000000001,0.45921536087989806,45561.61297440529,,,0.8644948549971678,0.8788812121417904,1.0,1.0
174,0.012030386264086701,0.585925,0.3595865951230129,45827.94991993904,,,0.8557584082854431,0.8808195448778746,1.0,1.0
175,0.014275257525150664,0.5860000000000001,0.45958686421314876,46093.3672478199,,,0.8655708618078695,0.8796885061051769,1.0,1.0
176,0.012109839856566397,0.5856250000000001,0.2973727775116762,46358.80244708061,,,0.8558469498558205,0.8720103770317759,1.0,1.0
177,0.013888173727900723,0.5857625000000001,0.333927383646369,46623.11728811264,,,0.8588137885948628,0.8737855575197582,1.0,1.0
178,0.013547309140267317,0.5849312499999999,0.39046276211738584,46886.81089901924,,,0.8638761570437191,0.8827687638442223,1.0,1.0
179,0.01174097553739557,0.58560625,0.31149472631514075,47152.19602251053,,,0.8560870413229205,0.8819612030000207,1.0,1.0
180,0.013177323857962619,0.5854062500000001,0.33169712821642555,47416.163853645325,,,0.8633910049771633,0.8783207246593725,1.0,1.0
181,0.01267153546650661,0.58545,0.32673734103639923,47676.95793700218,,,0.8608289899407391,0.877090145306888,1.0,1.0
182,0.013443967078637797,0.5857187500000001,0.3675365625570218,47939.79484772682,,,0.8576912278203703,0.8792198286684725,1.0,1.0
183,0.01250803340371931,0.58530625,0.3444922731568416,48205.00688791275,,,0.8643280478170727,0.8839826598974312,1.0,1.0
184,0.012541995504579972,0.58570625,0.4052518494427204,48469.271671295166,,,0.8666941637077505,0.8902411648146471,1.0,1.0
185,0.011019327394024003,0.58508125,0.33650913337866467,48731.424488544464,,,0.8593602313002441,0.8840702351293267,1.0,1.0
186,0.010782107776321936,0.5849437500000001,0.3696573124577602,48994.87525987625,,,0.8571323361485421,0.8852931578422283,1.0,1.0
187,0.01053030521434266,0.58468125,0.32174445583174627,49261.293708086014,,,0.8609034433713089,0.8812507957522262,1.0,1.0
188,0.012478403163549956,0.5848187499999999,0.3041814286261797,49528.61589407921,,,0.8623765502722568,0.8802163657767264,1.0,1.0
189,0.01629234227875713,0.5824687500000001,0.4798714196930329,49792.59217810631,,,0.8717748577968132,0.8881377992025539,1.0,1.0
190,0.010641250345361185,0.584525,0.3321398703381419,50057.21121907234,,,0.8702919645824156,0.8796777184010917,1.0,1.0
191,0.014202156361716333,0.5845625,0.35890654114385445,50324.088153362274,,,0.8703048839696821,0.8792072728469154,1.0,1.0
192,0.010187064502679278,0.58455625,0.29066765705744424,50588.64214730263,,,0.861668134116254,0.884779378521432,1.0,1.0
193,0.010365731370984576,0.5841562499999999,0.28749824737509094,50854.432418346405,,,0.8582307431330108,0.8816663160729111,1.0,1.0
194,0.011251430225092916,0.58418125,0.37451805708309016,51116.60603475571,,,0.8679572249769711,0.8858950164053416,1.0,1.0
195,0.01139655551087344,0.5843625,0.3337298524876436,51378.005006313324,,,0.8663502177833267,0.8821605293432626,1.0,1.0
196,0.010995840223768028,0.5836625,0.3468370314066609,51644.042033195496,,,0.8648214697853981,0.8842460006329598,1.0,1.0
197,0.010383892367826775,0.5835437499999999,0.34464741256088016,51910.081438064575,,,0.867594128577347,0.8869146507195342,1.0,1.0
198,0.009599134865129599,0.5835625,0.2773240029811859,52173.68096327782,,,0.8654658287495218,0.8869334070602976,1.0,1.0
199,0.01119173058978049,0.583225,0.31207127509017785,52436.0990114212,,,0.871065178635127,0.8852894160514471,1.0,1.0
200,0.00905416876921663,0.5833187500000001,0.28922127118955054,52699.468324422836,,,0.8606119155708926,0.8904111489584188,1.0,1.0
201,0.01045972750216606,0.58399375,0.3476858132208387,52963.10117292404,,,0.8702872392474175,0.8895816509757015,1.0,1.0
202,0.011903054825961589,0.58263125,0.3396811638648311,53226.90761804581,,,0.8716795673551705,0.8846625282558457,1.0,1.0
203,0.01193211698264349,0.5839375,0.4465811794002851,53491.4441986084,,,0.868844475100915,0.8937610748705852,1.0,1.0
204,0.008854208553384525,0.5836062499999999,0.38888442758470776,53753.7290263176,,,0.8682979561578691,0.8943517144347979,1.0,1.0
205,0.008553863804263529,0.5834250000000001,0.28381391149014235,54018.303240060806,,,0.8659987527318888,0.8871433940298035,1.0,1.0
206,0.008939263110369211,0.58333125,0.26975739809374016,54281.25945544243,,,0.8676700272670934,0.8908810318184905,1.0,1.0
207,0.009388347958156372,0.583225,0.39302887512991824,54545.05982017517,,,0.8673432430219252,0.8933976073380887,1.0,1.0
208,0.009980930137680843,0.5828375,0.301889346105357,54808.433942079544,,,0.8716022778062564,0.887920832963585,1.0,1.0
209,0.008927598588343244,0.5830375,0.280490419951578,55071.878890275955,,,0.8721354076288612,0.8882363662548536,1.0,1.0
210,0.008855297813715877,0.5837249999999999,0.297904060408473,55334.63536596298,,,0.8725969620286291,0.8951689621973538,1.0,1.0
211,0.008121136602130718,0.58320625,0.20597744612023233,55599.393783569336,,,0.8666192507739214,0.886415367694058,1.0,1.0
212,0.010128888644248945,0.5820562499999999,0.4241257335369786,55862.162945985794,,,0.8796223837123763,0.9003032770260206,1.0,1.0
213,0.007393133733421564,0.5821000000000001,0.22490689860035976,56126.35833621025,,,0.8717790480974286,0.8860534179369202,1.0,1.0
214,0.012013756101805485,0.5808125000000001,0.4109308681761225,56393.009237766266,,,0.8901770380321565,0.8931495203480804,1.0,1.0
215,0.008020498500263784,0.58284375,0.27172075646619004,56659.03699994087,,,0.8627278885298236,0.8945261883931552,1.0,1.0
216,0.010998576911515555,0.5826,0.25666376228133836,56923.396738529205,,,0.8788235793807395,0.8937912055539996,1.0,1.0
217,0.008003511114657157,0.58294375,0.22856375140448412,57187.532683849335,,,0.8744043765040208,0.8939123373394207,1.0,1.0
218,0.008353300193266477,0.5818749999999999,0.25979582152018943,57453.424999952316,,,0.8645303006774172,0.8912448148978276,1.0,1.0
219,0.009179137884348165,0.5829,0.25889693268885217,57720.47605347633,,,0.8734993699927325,0.8910056967644947,1.0,1.0
220,0.008974075726291629,0.582325,0.318521180562675,57987.75768303871,,,0.8685631790879208,0.8958851148228761,1.0,1.0
221,0.007299320545280352,0.58225,0.33246472955991824,58251.98668408394,,,0.8795927788424038,0.9061248312240512,1.0,1.0
222,0.005652076723345089,0.58315625,0.22907283597936232,58516.35985469818,,,0.8708587180046319,0.9024498947646192,1.0,1.0
223,0.011400277780194302,0.5826499999999999,0.3504635404795408,58781.754986047745,,,0.8682610551347403,0.9031754508962612,1.0,1.0
224,0.006373489880206762,0.5822375,0.25797318083544574,59048.40007996559,,,0.8727058584067,0.8952304472697415,1.0,1.0
225,0.011144988774321973,0.5822125,0.34231083703537785,59313.69768738747,,,0.8867011992423367,0.8961688205088388,1.0,1.0
226,0.006826359599654096,0.58253125,0.22185341864824296,59578.73558354378,,,0.8701843326699034,0.8866313157498632,1.0,1.0
227,0.015098029249202227,0.58146875,0.406061034463346,59842.968930482864,,,0.8865288514392045,0.8904143000701421,1.0,1.0
228,0.005868327538337326,0.58254375,0.19251729461054007,60106.80116605759,,,0.8697029011742232,0.8958344568148805,1.0,1.0
229,0.012173246526072035,0.5818625,0.32400508392602206,60371.34882855415,,,0.873160958177574,0.8978707915176355,1.0,1.0
230,0.008781791388901183,0.581775,0.3030784210811059,60634.04323172569,,,0.8819302364332566,0.8980734718494261,1.0,1.0
231,0.009796515408379492,0.5811999999999999,0.37343591631700596,60898.24292945862,,,0.8605641066018161,0.8955963447543422,1.0,1.0
232,0.006637752440292388,0.58195,0.24788504789272944,61160.31103730202,,,0.8743061704026884,0.8962202968491374,1.0,1.0
233,0.006064721480652224,0.5817875,0.24891464002430438,61420.46742415428,,,0.8611448350587301,0.9051205319450151,1.0,1.0
234,0.00787234284725855,0.5814625,0.26703693404172857,61681.52088546753,,,0.867889421525418,0.8943518402448538,1.0,1.0
235,0.005787040625727968,0.5816749999999999,0.19740875009447337,61943.98865509033,,,0.8598359518813667,0.8998939711024729,1.0,1.0
236,0.014339059511985398,0.58175625,0.325592086588343,62207.573016643524,,,0.8737153001907701,0.9011786957268324,1.0,1.0
237,0.0130950864906481,0.58003125,0.35432913079857825,62469.97111940384,,,0.8620205519296444,0.8952663802169258,1.0,1.0
238,0.006483804393792524,0.5819000000000001,0.2963739818582932,62732.983963251114,,,0.8605593436340961,0.9013137663054526,1.0,1.0
239,0.008919542228250067,0.58119375,0.34784583691507576,62995.02159285545,,,0.8686643923405981,0.9068383904999395,1.0,1.0
240,0.006081515229743673,0.58169375,0.24940644993136327,63255.807958841324,,,0.8614729562515286,0.9046369990118641,1.0,1.0
241,0.006057872630481143,0.5815937499999999,0.23232874056945244,63520.82870268822,,,0.862849936850146,0.8980970558600946,1.0,1.0
242,0.006444223447761033,0.58148125,0.26592162642627953,63783.51759600639,,,0.8569884620727612,0.8902327020365175,1.0,1.0
243,0.005766925767966313,0.5818875,0.2298648921151956,64045.021421670914,,,0.8521831501704237,0.9057706378152393,1.0,1.0
244,0.0058670362377597485,0.5812375000000001,0.2015661323443055,64307.280208826065,,,0.8509434412933878,0.9110069845689964,1.0,1.0
245,0.008884617401054128,0.580225,0.2547468228265643,64573.04629635811,,,0.8637448735770832,0.8987728729609915,1.0,1.0
246,0.0075261889134708325,0.58101875,0.25202027981479963,64838.518216371536,,,0.8626343057590304,0.9018401095656198,1.0,1.0
247,0.010583723657327937,0.5798125000000001,0.31951205506920816,65098.388214826584,,,0.8755988234169247,0.9026631677077384,1.0,1.0
248,0.006378542083257344,0.58095,0.3384758047759533,65361.02653837204,,,0.8528863463114156,0.906897058040823,1.0,1.0
249,0.005211666534160031,0.58129375,0.243621239438653,65623.90085148811,,,0.8543711798664575,0.901420957630517,1.0,1.0
250,0.007988793754338985,0.58054375,0.3893498294055462,65888.74635648727,,,0.8706359353645472,0.8998872852876099,1.0,1.0
251,0.008463761075108777,0.58049375,0.2868887199088931,66152.1611790657,,,0.8563230487960227,0.9039566574894282,1.0,1.0
252,0.0057386500127904585,0.58076875,0.20647326027974486,66416.37060046196,,,0.8554994581400214,0.9012703204948913,1.0,1.0
253,0.006215111972414889,0.58080625,0.25058163174738485,66678.42095899582,,,0.8672200221812785,0.9061726253454737,1.0,1.0
254,0.00596317810632172,0.5813187500000001,0.20057530567670862,66941.1834025383,,,0.8741592838637285,0.8984858441797805,1.0,1.0
255,0.006659767447126797,0.58136875,0.261901518702507,67205.48926854134,,,0.8599452307462777,0.889460533906604,1.0,1.0
256,0.004901016934309155,0.5815875,0.1776583567261696,67468.51818037033,,,0.8531616032707708,0.9085005166858948,1.0,1.0
257,0.007462023414700526,0.5798749999999999,0.3085160311932365,67731.07591152191,,,0.8608046858391659,0.883522041291585,1.0,1.0
258,0.005462782434915426,0.5810937500000001,0.22358405000219742,67995.02214550972,,,0.8504181248420235,0.9045327535638675,1.0,1.0
259,0.010613975608430337,0.5801125,0.342492461639146,68259.47397899628,,,0.8616765188310053,0.9038081211189248,1.0,1.0
260,0.006285709299845621,0.5801937500000001,0.28540162139882647,68522.94219446182,,,0.851098582090764,0.8917392603486575,1.0,1.0
261,0.00544145116582513,0.58058125,0.22611988640079897,68787.29861664772,,,0.8508072030808141,0.9008383422224127,1.0,1.0
262,0.0056979407621838615,0.58036875,0.2286960303162535,69048.33764696121,,,0.8511475861555922,0.9040225367783534,1.0,1.0
263,0.006124178571189986,0.579625,0.2358857361289362,69312.87398910522,,,0.8590077281196198,0.9107081444724667,1.0,1.0
264,0.004324423467915039,0.5803625,0.1415105299713711,69578.64031457901,,,0.8492955284718127,0.9037681652976719,1.0,1.0
265,0.006535601398354629,0.5801812500000001,0.2513605651135246,69843.4699203968,,,0.8538868957495163,0.8958865051675107,1.0,1.0
266,0.004179064316122094,0.5805250000000001,0.17709448241318265,70107.46118617058,,,0.8570695898136522,0.9062837794729665,1.0,1.0
267,0.006728834599198308,0.58070625,0.22205457848807175,70372.94436049461,,,0.8615071199482466,0.8937455134823806,1.0,1.0
268,0.020869369037973227,0.58021875,0.32540522000441946,70636.29773688316,,,0.8528394347043748,0.9023069762649596,1.0,1.0
269,0.004406074573489604,0.5810000000000001,0.1966955102980137,70899.73881268501,,,0.8477245813784631,0.9056128239900072,1.0,1.0
270,0.004837732555461116,0.5808375,0.19082731114079554,71165.95141220093,,,0.8484393138385691,0.8958282999085849,1.0,1.0
271,0.007362479500443442,0.58003125,0.19381717015057803,71429.89964461327,,,0.8518395272792983,0.9036050738259414,1.0,1.0
272,0.005117292294016806,0.5801750000000001,0.2208383459908267,71692.32239294052,,,0.8495196887197909,0.9110481559929062,1.0,1.0
273,0.004210364634491271,0.58038125,0.20135221065332493,71956.88977980614,,,0.8499041071874617,0.8954411021334765,1.0,1.0
274,0.017753134296799544,0.5800749999999999,0.34400755241513253,72219.50433039665,,,0.8562139029128696,0.9166399587127324,1.0,1.0
275,0.005236313198838616,0.57985,0.2953885350997249,72484.53254747391,,,0.8684354849268627,0.9067788158151044,1.0,1.0
276,0.004190846152778249,0.58039375,0.25659241651495296,72749.94025158882,,,0.8609795328908475,0.9080471497842912,1.0,1.0
277,0.004758219210634707,0.57998125,0.2397342908817033,73015.46525716782,,,0.8475979079779663,0.8940611552297473,1.0,1.0
278,0.009458585378888528,0.57933125,0.2885557475189368,73279.30385732651,,,0.865074199170373,0.9081750063274217,1.0,1.0
279,0.004684505830664421,0.58013125,0.22491804771125318,73543.4518661499,,,0.851910951459756,0.895477671482946,1.0,1.0
280,0.0046199045507819385,0.5801125,0.1919573279718558,73809.86975121498,,,0.851294239861005,0.9029037948276231,1.0,1.0
281,0.004442150812246836,0.580325,0.2032406322347621,74072.28388094902,,,0.8453780803491006,0.9128309745434814,1.0,1.0
282,0.026972009467135648,0.5786125,0.3351522005473574,74336.48176050186,,,0.8493805794900804,0.9010009482421306,1.0,1.0
283,0.004794687937101116,0.5798125,0.24526489097625018,74600.87342953682,,,0.8509440438745515,0.8928666086757353,1.0,1.0
284,0.004124801913712872,0.58019375,0.14164384516576925,74865.90826869011,,,0.8513019467008567,0.9029925067149556,1.0,1.0
285,0.007074590840056771,0.5799874999999999,0.2791123630478978,75130.87699222565,,,0.8661528787178403,0.8949143101998269,1.0,1.0
286,0.0034929372632177542,0.580225,0.16526606654127438,75395.57424664497,,,0.8458623471847306,0.9046471020810184,1.0,1.0
287,0.004698378501052503,0.57956875,0.27136252767716845,75662.73527550697,,,0.8509180886884288,0.9034049918299729,1.0,1.0
288,0.004982394235412357,0.57931875,0.23382000289857388,75931.1869585514,,,0.8523330449561946,0.9033694513159962,1.0,1.0
289,0.005019091228314209,0.57974375,0.20906888150299588,76196.79963088036,,,0.8470235378282249,0.9077614650509556,1.0,1.0
290,0.004087958854506723,0.58043125,0.18190210095296303,76460.97853946686,,,0.8518436287784314,0.8948528493696666,1.0,1.0
291,0.04696978859537921,0.5731499999999999,0.25810718641926844,76722.64668130875,,,0.8470139013275906,0.9094283186524106,1.0,1.0
292,0.004698397922038566,0.5797125,0.25004256386309864,76991.09809231758,,,0.8460245152821754,0.8988157669801649,1.0,1.0
293,0.004010226808168227,0.5800187499999999,0.1645774468469123,77253.67854785919,,,0.8472395903028458,0.9050156510227674,1.0,1.0
294,0.006514186499407515,0.57935625,0.24127003674705824,77519.17653989792,,,0.8544750030863336,0.915954639094458,1.0,1.0
295,0.004815957906612311,0.58000625,0.2044695621356368,77788.0223929882,,,0.8512365461020432,0.9134334610459474,1.0,1.0
296,0.0035003594326553865,0.5800875000000001,0.17626814724256595,78055.57440495491,,,0.8437362292653117,0.9053014180370867,1.0,1.0
297,0.00912771989715111,0.57885,0.23489804196481903,78322.37316823006,,,0.8497663936181779,0.9169787642359765,1.0,1.0
298,0.008924564423432459,0.58005,0.1813905945668618,78589.34235930443,,,0.861068676688927,0.9126163064657673,1.0,1.0
299,0.0037245483301376224,0.5795375,0.1737241837196052,78854.8414452076,,,0.8456259506839293,0.9064640690562794,1.0,1.0
300,0.004653471784331486,0.5794250000000001,0.17157276977474492,79120.08801007271,,,0.8440019940361685,0.896279042986281,1.0,1.0
301,0.007138173418206861,0.57940625,0.211085081504037,79384.34516191483,,,0.8586320957522786,0.9117397893183268,1.0,1.0
302,0.005305856880295323,0.5793625,0.2725177355421086,79650.45246648788,,,0.8581496163577745,0.9070003961432922,1.0,1.0
303,0.00389397181388631,0.57915625,0.178675887050728,79916.25488424301,,,0.8468721593971542,0.9098654879655257,1.0,1.0
304,0.004927206095453584,0.57965625,0.17562307786817352,80182.02498197556,,,0.8490379494401064,0.9161247151492649,1.0,1.0
305,0.004890988442275556,0.57931875,0.17260919334366917,80444.24424958229,,,0.8518677559587873,0.9125438178122187,1.0,1.0
306,0.0045323794718569845,0.5795999999999999,0.17348603152980407,80708.74368023872,,,0.8553534362281465,0.9157169725639358,1.0,1.0
307,0.005214531523597543,0.57938125,0.1717009081505239,80974.89752554893,,,0.8540561355605647,0.9049582355953918,1.0,1.0
308,0.0032649879187374607,0.57955625,0.12090823041896025,81238.1574075222,,,0.8490063983187457,0.9148864377529883,1.0,1.0
309,0.004559759486437543,0.5796874999999999,0.1504596925030152,81502.7143611908,,,0.8521981026415035,0.9070378385154811,1.0,1.0
310,0.0036310915009380553,0.5796250000000001,0.16683349336187045,81764.99882602692,,,0.8447467315132619,0.9079027973414322,1.0,1.0
311,0.004085747463977896,0.5790875,0.20038374966631334,82031.46642446518,,,0.8607250591002249,0.9205239638991771,1.0,1.0
312,0.003647654723681626,0.5801937500000001,0.1631733212309579,82295.54534459114,,,0.847571837843788,0.909298363182132,1.0,1.0
313,0.0031846922443946823,0.580275,0.14072214250142376,82561.47402501106,,,0.8491279579500333,0.9099601432302012,1.0,1.0
314,0.005464837651743437,0.5792875,0.3191147682256997,82824.82755160332,,,0.8668776395526738,0.9222580894681718,1.0,1.0
315,0.0041130089532089185,0.579175,0.20112975956872106,83088.85270643234,,,0.8499505736533406,0.9027604372296796,1.0,1.0
316,0.005867631051296485,0.57925625,0.3041175639877717,83352.40609645844,,,0.8499569389399688,0.9147976602336871,1.0,1.0
317,0.004924334881070536,0.580125,0.15539395182083052,83621.20538210869,,,0.8474947779254993,0.8972228414081722,1.0,1.0
318,0.007316066841303836,0.57984375,0.1426145236007869,83887.40871953964,,,0.8629716661622483,0.9001728211179392,1.0,1.0
319,0.0259961623352865,0.5779812499999999,0.38563021216541526,84151.95035624504,,,0.8520939965247277,0.9280471151403202,1.0,1.0
320,0.02950556947835139,0.5721375000000001,0.4683579127614697,84417.71918535233,,,0.8576737742085934,0.8842168757814433,1.0,1.0
321,0.005071195558412,0.57905,0.3101962488144636,84681.07702326775,,,0.8617924574440501,0.9125902482086378,1.0,1.0
322,0.004510333260259358,0.58024375,0.31520716318239766,84947.15400862694,,,0.8535205773976049,0.903049900136079,1.0,1.0
323,0.0031171694303338882,0.58093125,0.13631960457811754,85211.50697135925,,,0.844660666706565,0.9140558780315649,1.0,1.0
324,0.005187027659849263,0.58049375,0.1292525491056343,85476.42052602768,,,0.8475754927003374,0.9132574979590194,1.0,1.0
325,0.003757610277534695,0.5802937499999999,0.17253223480656743,85742.08835840225,,,0.8462486260040316,0.8971709985218109,1.0,1.0
326,0.0030834611752652563,0.58058125,0.1569498252434035,86005.71420788765,,,0.8477835400468919,0.9020469509975704,1.0,1.0
327,0.003934897301223828,0.58023125,0.15269598060597975,86270.21258211136,,,0.8515292863875723,0.9071234870513986,1.0,1.0
328,0.01019371067013708,0.57946875,0.17337569476415712,86537.02314591408,,,0.8467520136969564,0.9243231399637685,1.0,1.0
329,0.0029183311518863773,0.579575,0.1480141623566548,86803.69907832146,,,0.8431128072196014,0.8894470029801795,1.0,1.0
330,0.002892092502588639,0.5801625,0.1150102419157823,87066.88264489174,,,0.847590739350873,0.9142461395606969,1.0,1.0
331,0.00316345949031529,0.5796874999999999,0.13991537286589542,87332.82457876205,,,0.8508641525238365,0.9221586690023067,1.0,1.0
332,0.014529423317071632,0.57850625,0.19844698247810205,87592.70809435844,,,0.8532056352364342,0.9264863876647483,1.0,1.0
333,0.016750481476265122,0.57868125,0.1731231039079527,87855.39110827446,,,0.8455779716599187,0.9205364211668742,1.0,1.0
334,0.011446698739018758,0.5758062499999999,0.35829060326019924,88120.74138522148,,,0.8460238337052634,0.9147559617325092,1.0,1.0
335,0.007328221466013928,0.5777625,0.4029579188053807,88384.14808726311,,,0.8644286083755779,0.9112200530007973,1.0,1.0
336,0.003849233290020493,0.5791124999999999,0.2816907570386926,88648.81339502335,,,0.8492688037836555,0.9118950647346664,1.0,1.0
337,0.006463436516060028,0.5782812500000001,0.24720314458633463,88909.30693602562,,,0.84961752845428,0.9217567890357934,1.0,1.0
338,0.0035130785989167636,0.57894375,0.1513302180916071,89173.0366768837,,,0.8522907401997397,0.9174079914450809,1.0,1.0
339,0.004027417569886893,0.5785125,0.22243156361704072,89434.91198706627,,,0.8566527010175635,0.9241207735947343,1.0,1.0
340,0.00268750925497443,0.5790625,0.14901361626883347,89698.29390573502,,,0.8428553247758028,0.8995615530838386,1.0,1.0
341,0.002880261941390927,0.5794125,0.11127050792177519,89961.31165289879,,,0.8422408776627563,0.9240959693603649,1.0,1.0
342,0.004060080994531746,0.5786250000000001,0.13273070432866613,90225.0754570961,,,0.85401706238417,0.9169104234024827,1.0,1.0
343,0.004132773477977025,0.57926875,0.2045881883862118,90487.85530209541,,,0.8514347917276561,0.9050244023184122,1.0,1.0
344,0.0027186795141460607,0.5788875,0.15694928709417583,90749.31442761421,,,0.843091183480488,0.9211089735635318,1.0,1.0
345,0.004149136593696312,0.57861875,0.17093747528269887,91016.664778471,,,0.8497436110043395,0.9269003458418281,1.0,1.0
346,0.003018862030148739,0.57878125,0.13923362139612436,91279.92711544037,,,0.8428928315646438,0.8980768217453143,1.0,1.0
347,0.0032472350423631722,0.57856875,0.11008362239226699,91543.47671151161,,,0.849981191324375,0.921020565523921,1.0,1.0
348,0.0034254370319104057,0.57811875,0.16476054632415374,91805.32463765144,,,0.8502980068759665,0.9087913236713961,1.0,1.0
349,0.0037936061748041535,0.5784812500000001,0.123795661299179,92068.90954136848,,,0.8469237527861053,0.9144092432473607,1.0,1.0
350,0.0049773935283155876,0.5789,0.16364319156855345,92333.06202316284,,,0.8539648111927975,0.9111515602201672,1.0,1.0
351,0.0022154289919853907,0.57911875,0.09595262861500184,92598.2901790142,,,0.8414823945752798,0.9228966630510261,1.0,1.0
352,0.01045885479907156,0.578525,0.26104716941093403,92863.75202393532,,,0.8595239536557353,0.9216208808414081,1.0,1.0
353,0.004066661000615568,0.57845,0.22502351809913915,93128.68627500534,,,0.8501902250064255,0.9146895488512768,1.0,1.0
354,0.008658728312002494,0.5780624999999999,0.28756166625147067,93393.33171772957,,,0.8493687586527017,0.9031054938152105,1.0,1.0
355,0.003199940631384379,0.5790625,0.19064765522877375,93656.65770053864,,,0.8443709521963809,0.918061316936831,1.0,1.0
356,0.0022443307276262207,0.57965,0.11208198557918271,93919.28753137589,,,0.842124245195149,0.9172942849071083,1.0,1.0
357,0.0045585870786453596,0.57929375,0.12717875350887578,94183.73835968971,,,0.854141581587988,0.9135956388917706,1.0,1.0
358,0.002151357609545812,0.5788375,0.10688469034309188,94446.44962668419,,,0.8411043479196089,0.8913197823323402,1.0,1.0
359,0.0026888425152719717,0.5788625000000001,0.13021874784802398,94710.34211230278,,,0.8414893453255576,0.893112633249028,1.0,1.0
360,0.0020276095725421327,0.5788249999999999,0.10477611127619942,94974.59812259674,,,0.8405932362498911,0.8901419604625161,1.0,1.0
361,0.050490096909561535,0.57713125,0.2221812719479203,95235.63182497025,,,0.8438909022161292,0.8959973343270928,1.0,1.0
362,0.002959645978990011,0.577925,0.16988937795783082,95499.01298618317,,,0.8467498514034961,0.9023219741007585,1.0,1.0
363,0.00738138249325857,0.5787312499999999,0.11846394309153159,95764.73966693878,,,0.8452793024308526,0.8922253294362226,1.0,1.0
364,0.0023668476820603245,0.5785125,0.11453613564372063,96031.65251493454,,,0.8409744260886098,0.8916368109725961,1.0,1.0
365,0.0024842036429618022,0.57869375,0.10497413498039047,96296.65065336227,,,0.846932624695256,0.9134640058758892,1.0,1.0
366,0.0057592209570429985,0.57858125,0.20077866781502962,96559.8492128849,,,0.8524075415225618,0.9172351294201763,1.0,1.0
367,0.0024806887457089035,0.578575,0.1120419090303282,96825.66585183144,,,0.8416008135132494,0.8993065765155022,1.0,1.0
368,0.003010843555239262,0.57859375,0.10486915212435027,97091.51610088348,,,0.8475965620125356,0.8898117599080888,1.0,1.0
369,0.0022975961637712317,0.5784437499999999,0.15363093940541148,97353.56765508652,,,0.8479671031322658,0.8990749556940724,1.0,1.0
370,0.0018192980067397002,0.5787374999999999,0.10373290982097387,97616.87565135956,,,0.8402478239744804,0.895313934748488,1.0,1.0
371,0.03980409668729407,0.5761375,0.2960132980719209,97879.26982593536,,,0.8502951794451816,0.9333524469067196,1.0,1.0
372,0.0030744634375878374,0.57860625,0.21031392514705657,98142.25015354156,,,0.8482440907229702,0.9215367072101598,1.0,1.0
373,0.00207697508194542,0.57840625,0.1211813531195124,98405.51188492775,,,0.8420802386975041,0.9073372346429662,1.0,1.0
374,0.011097948123642709,0.577275,0.20802868710209926,98669.35209703445,,,0.8455746871924236,0.91855146255985,1.0,1.0
375,0.00196020670919097,0.5786625,0.12082691034302115,98932.48490810394,,,0.8414071110700018,0.8801169010304184,1.0,1.0
376,0.00180209941972862,0.5788187499999999,0.09439822784624993,99198.62918806076,,,0.8405505020789404,0.9123889159972126,1.0,1.0
377,0.0022338266539009056,0.578625,0.09367837812751531,99463.89222455025,,,0.841301488551743,0.8963908586115483,1.0,1.0
378,0.009852158958892687,0.5776875,0.18107028293112915,99727.82771158218,,,0.8527311792710477,0.9070817081552105,1.0,1.0
379,0.0017449922972446073,0.57850625,0.1014071882236749,99992.03962087631,,,0.8404499293808559,0.9086058856422388,1.0,1.0
380,0.005248025883702212,0.578525,0.09841563794761896,100256.30874013901,,,0.8450775289782266,0.9228962782300443,1.0,1.0
381,0.004857097641797736,0.5783687500000001,0.13554752484584848,100520.17573833466,,,0.8606984558343727,0.9069459870760923,1.0,1.0
382,0.0016962596091616433,0.5783499999999999,0.08708317546794812,100784.88378047943,,,0.8400183047849056,0.8986860456801908,1.0,1.0
383,0.0030096216283709513,0.5784437499999999,0.14191961884498597,101049.21368956566,,,0.845694103037879,0.8912783273276091,1.0,1.0
384,0.0016127627623063745,0.5787125,0.07334292076217631,101316.44803023338,,,0.8395414229836425,0.9263456073026753,1.0,1.0
385,0.0031035681102366654,0.5782375,0.12791966209188105,101582.03191590309,,,0.8494035622954541,0.8785338001623997,1.0,1.0
386,0.0034623721656316777,0.57856875,0.15756787865733107,101849.35202240944,,,0.8455917921017595,0.9271761612086867,1.0,1.0
387,0.0016931872087297961,0.578125,0.09100347973095874,102115.97670483589,,,0.8402880470518235,0.8956536645609691,1.0,1.0
388,0.0026217578117211818,0.5785687500000001,0.09201366112877925,102379.39860677719,,,0.8414890863484934,0.9110367832583002,1.0,1.0
389,0.0016241278726738528,0.57820625,0.07273024162277579,102644.59652328491,,,0.839370265174139,0.8787739984690726,1.0,1.0
390,0.0025363991808262654,0.57811875,0.12974171858901778,102911.72884654999,,,0.8458700502953437,0.8747061406058222,1.0,1.0
391,0.0015509245717112209,0.57795,0.06680462717389067,103174.59747552872,,,0.8392243499541594,0.90750028364066,1.0,1.0
392,0.0040258213002744014,0.57779375,0.09149169181473553,103440.34082055092,,,0.8440287523490194,0.879376898782839,1.0,1.0
393,0.00580722214835987,0.5773874999999999,0.18810326332847277,103704.88061070442,,,0.8507585689838317,0.8889825188510756,1.0,1.0
394,0.015861017533461565,0.57690625,0.2304999037956198,103968.1364274025,,,0.8488799020312268,0.9227664090387372,1.0,1.0
395,0.011521730258937166,0.5771124999999999,0.11373764009525379,104234.0767083168,,,0.844775452177456,0.9171307607556497,1.0,1.0
396,0.0023452194051060363,0.5777874999999999,0.08657166427001357,104501.23404574394,,,0.8403905095245594,0.8914062668830075,1.0,1.0
397,0.011211395280042781,0.5772875000000001,0.15000605651487905,104765.11072468758,,,0.8423045212504158,0.9283354356134901,1.0,1.0
398,0.002058679180117906,0.5776812499999999,0.12211811331411203,105029.87735533714,,,0.839939926548174,0.8824773483925148,1.0,1.0
399,0.0015180146978309495,0.57774375,0.08323546343793471,105294.850638628,,,0.8393443289793043,0.8920141131673915,1.0,1.0
400,0.0020923029851473984,0.578025,0.09431224170451363,105558.74334859848,,,0.8398438767608882,0.8757057323748502,1.0,1.0
401,0.006996977225389855,0.5768,0.11676943770920237,105825.79479956627,,,0.8423977194350944,0.8971883049507248,1.0,1.0
402,0.002678010593444924,0.57789375,0.07447037645615637,106090.81672763824,,,0.8394897295646078,0.8900270451358967,1.0,1.0
403,0.03311076048648829,0.5759875,0.20583309723685186,106357.09124588966,,,0.8375745601255584,0.9036395936960617,1.0,1.0
404,0.0031453341849555726,0.5764625000000001,0.30048527059455715,106623.74167585373,,,0.8459901798738998,0.9010958364557763,1.0,1.0
405,0.002417644872366509,0.57759375,0.11848440207540989,106892.13153982162,,,0.8411061846762329,0.9282945122740263,1.0,1.0
406,0.03633400276412431,0.5760375,0.19885505254690847,107157.6331808567,,,0.8375255297973325,0.9222902715716159,1.0,1.0
407,0.00275319954726001,0.57735625,0.11993925127511224,107419.25378370285,,,0.8556503498147489,0.8925152394772096,1.0,1.0
408,0.002719593018264277,0.5771375000000001,0.15699294631679853,107682.70214509964,,,0.8477461357479554,0.8975194356763924,1.0,1.0
409,0.002435840977159387,0.5776125000000001,0.09103736276738346,107946.27285528183,,,0.845990619654611,0.9129707208507125,1.0,1.0
410,0.003987345098539662,0.57706875,0.14706889502704143,108213.85723376274,,,0.8453149372696328,0.8824610339760877,1.0,1.0
411,0.00146952014456474,0.5776,0.08845023099953929,108478.98005461693,,,0.839167108269583,0.8855165609391383,1.0,1.0
412,0.0014320388339911006,0.5778874999999999,0.0780471939748774,108744.91141223907,,,0.8381778496870422,0.8906292537010914,1.0,1.0
413,0.0013811995679134268,0.57785,0.07376417284831405,109008.98939752579,,,0.8380592589264368,0.886120383448839,1.0,1.0
414,0.004985660547026783,0.5781937500000001,0.097754154757907,109273.74977779388,,,0.843504115533956,0.8835939092723949,1.0,1.0
415,0.001749283114622813,0.5776000000000001,0.11575046111829579,109538.1710639,,,0.8463537450638051,0.8771481865375301,1.0,1.0
416,0.014720599532483903,0.57734375,0.18775135834390919,109804.35883903503,,,0.8389153564026615,0.9038112830046281,1.0,1.0
417,0.002683959371643141,0.5771437500000001,0.17497952260697883,110066.05833721161,,,0.8466966411797436,0.893893207394596,1.0,1.0
418,0.001417776410926308,0.57800625,0.08545587551780046,110329.22937750816,,,0.8380711091482408,0.886711915624709,1.0,1.0
419,0.0030313371420561458,0.57730625,0.0684242484314988,110592.20489883423,,,0.8440051843284582,0.8829218226943651,1.0,1.0
420,0.004608345820815884,0.5774625,0.1836145191763838,110856.98715758324,,,0.8535838342524431,0.8758361674899325,1.0,1.0
421,0.008277011880636564,0.5771875,0.13932366330797474,111121.38702511787,,,0.843813632396282,0.8913477861774908,1.0,1.0
422,0.00662975288250891,0.5772625,0.14377027781059346,111388.92484354973,,,0.8454405173188162,0.8749768492526059,1.0,1.0
423,0.0013958023113445962,0.57779375,0.07578036061798533,111652.28598713875,,,0.8383887857290401,0.8924460625128505,1.0,1.0
424,0.001350398485374171,0.5780624999999999,0.0864024544134736,111915.2333369255,,,0.8376906087259288,0.8868558021867152,1.0,1.0
425,0.0013028609449975193,0.57841875,0.05854857286127905,112179.32108521461,,,0.8375301181079233,0.8852221865751334,1.0,1.0
426,0.0018906223956946632,0.5781375,0.15506434510461986,112444.64023590088,,,0.8384890346265925,0.8695513639767692,1.0,1.0
427,0.007982126949536905,0.5777687499999999,0.17250856437409917,112711.65473794937,,,0.849527546027026,0.8772047925057558,1.0,1.0
428,0.0013347885347684495,0.5781375,0.07885392347040275,112975.01223230362,,,0.8382776762376538,0.8819907408380258,1.0,1.0
429,0.012562291862377607,0.57714375,0.15368244809408982,113241.49830961227,,,0.8398308551779553,0.8843658790268932,1.0,1.0
430,0.0013236909988336265,0.5776375,0.07527054397699734,113505.09973216057,,,0.8373179335707854,0.8765320778880805,1.0,1.0
431,0.0012656312577746577,0.5777937500000001,0.054458076336110633,113769.59762310982,,,0.8371227417119487,0.8725355562401821,1.0,1.0
432,0.014282295457633156,0.5776312499999999,0.14488152090149622,114032.63197898865,,,0.8521005242623219,0.9063247905942822,1.0,1.0
433,0.0018228840632218636,0.5777187500000001,0.13780517634004355,114298.27944946289,,,0.8454981907636343,0.893453057766417,1.0,1.0
434,0.007990179915032059,0.57736875,0.16948714181780816,114562.59381198883,,,0.8506246766880421,0.8799363992580851,1.0,1.0
435,0.007369041133824794,0.5782124999999999,0.12662929529324174,114825.12525987625,,,0.8426879925519424,0.8838778514791992,1.0,1.0
436,0.001306828187807696,0.57833125,0.0778732901904732,115089.16283130646,,,0.8373968331207255,0.8695088493839542,1.0,1.0
437,0.0012427954870872782,0.5782125,0.06909977248869836,115352.6557238102,,,0.8369197190142749,0.8812935128309146,1.0,1.0
438,0.003462676890922012,0.578075,0.10190160575633248,115617.8219358921,,,0.8411267655297546,0.8682435968719067,1.0,1.0
439,0.0012163058567239205,0.5780125,0.06037208312191069,115883.46559000015,,,0.8372920317617061,0.8692695910663255,1.0,1.0
440,0.001198061065042566,0.57823125,0.06665775186071793,116149.18312191963,,,0.8367927207600192,0.8695524436155773,1.0,1.0
441,0.0017089591112380731,0.57826875,0.09530255429757138,116413.85103225708,,,0.8373404112891765,0.8824120717798073,1.0,1.0
442,0.029801322466846615,0.573875,0.2503104542226841,116678.12340402603,,,0.8352077507969446,0.8879274179035047,1.0,1.0
443,0.03280199303917471,0.5721937500000001,0.42375867171213033,116941.67705321312,,,0.8366746472666491,0.8684713226276655,1.0,1.0
444,0.0225182741516619,0.5726625,0.5726591782023509,117203.99247860909,,,0.8651966632343349,0.8990305529189759,1.0,1.0
445,0.04428005032459623,0.5749312499999999,0.7126251262923081,117466.43040919304,,,0.8832024469541199,0.9119239239108707,1.0,1.0
446,0.0038958370634645688,0.5794125,0.4150016335149606,117730.97790241241,,,0.8604297964308051,0.9239939979490913,1.0,1.0
447,0.002916670348349726,0.5796125000000001,0.23129296898841858,117993.16851377487,,,0.8459458424753057,0.9147032452113256,1.0,1.0
448,0.00617850917042233,0.5799562500000001,0.2220159100058178,118256.63530015945,,,0.8495624901545188,0.9239458904347226,1.0,1.0
449,0.0026802525244420394,0.5800062500000001,0.20177347625916203,118518.75470614433,,,0.8427585566781737,0.896041192251251,1.0,1.0
450,0.0026943418240989556,0.57915,0.1257622057572007,118784.67511534691,,,0.8411739869923494,0.8967157900090375,1.0,1.0
451,0.0019644270058051918,0.5792125,0.102272280662631,119047.18585968018,,,0.8394083067966118,0.9059662652087861,1.0,1.0
452,0.0023371983250399355,0.57946875,0.09891066513955593,119310.9698164463,,,0.8397991720464226,0.9387732038368757,1.0,1.0
453,0.0018130939795810263,0.5792062499999999,0.08976790163045129,119572.60149860382,,,0.8387354000355653,0.8941224611371175,1.0,1.0
454,0.012688199786134648,0.577925,0.17320391417791445,119836.06676006317,,,0.8424786719515459,0.9036280044291012,1.0,1.0
455,0.0017727730777551188,0.57908125,0.11350897858695437,120099.8700966835,,,0.8389417296146447,0.9128685707768386,1.0,1.0
456,0.001673654466503649,0.5791375000000001,0.07574912275498112,120363.95055890083,,,0.8382160149256085,0.9022738400342758,1.0,1.0
457,0.00195749291433458,0.57923125,0.08875018171966076,120625.1472401619,,,0.8382084662623872,0.9131187292416472,1.0,1.0
458,0.0015681933053201646,0.57875625,0.0716147379639248,120889.93925046921,,,0.8376946697471435,0.8988434662300869,1.0,1.0
459,0.0020280584672946133,0.57906875,0.10783106073116262,121156.72321462631,,,0.8384230258117447,0.8697831139913819,1.0,1.0
460,0.0014640484036135605,0.57915,0.06924938124914964,121422.33469319344,,,0.8377201556665879,0.8920082019606763,1.0,1.0
461,0.0014488221298961435,0.578825,0.08551947480688492,121687.02777123451,,,0.8373727233820369,0.880393549709077,1.0,1.0
462,0.0031813201219847535,0.5790875,0.12487671927859385,121951.17923974991,,,0.84390686339247,0.8913339322509046,1.0,1.0
463,0.0013827081815179555,0.5792,0.06910801402603586,122217.12661576271,,,0.8373441679764314,0.8681923417221881,1.0,1.0
464,0.011479892519673738,0.578175,0.13098843510573108,122484.29432034492,,,0.8410305848726678,0.8846667548022151,1.0,1.0
465,0.02872249180309154,0.5776375,0.1879007588606328,122749.8342730999,,,0.8367554706964843,0.9157510661931314,1.0,1.0
466,0.0016486651424202138,0.57891875,0.09645093578534822,123015.58801627159,,,0.8385853661851354,0.8968414977165484,1.0,1.0
467,0.0013516291479390929,0.57838125,0.0639659286942333,123281.42841649055,,,0.8370402647115232,0.8781628149469234,1.0,1.0
468,0.0017779593586965347,0.57841875,0.08304518608686824,123545.70132446289,,,0.8373278359691723,0.8812678805412686,1.0,1.0
469,0.0012941995755682,0.57825625,0.06142977091173331,123811.57995700836,,,0.8368478510816222,0.8702571653204113,1.0,1.0
470,0.0018068186915115802,0.57843125,0.07651823779257635,124077.76864814758,,,0.8370117285010807,0.8780646259069911,1.0,1.0
471,0.00126031969775795,0.5782937499999999,0.056466702340791625,124344.47353887558,,,0.8365639143360639,0.8790857706165803,1.0,1.0
472,0.008569371811427117,0.5784625,0.10548342675901949,124610.8148829937,,,0.8417782567248393,0.8735955060408576,1.0,1.0
473,0.004081469623451994,0.57809375,0.09973923357514043,124875.00636768341,,,0.8435901916608041,0.8812300176706269,1.0,1.0
474,0.0012251624550117413,0.5781375,0.061421656096354124,125139.40375351906,,,0.8367458384348039,0.8840195864740992,1.0,1.0
475,0.0020293963578296827,0.57825625,0.06237049187378337,125405.20138263702,,,0.844232960265453,0.8693164787736886,1.0,1.0
476,0.003098621392018686,0.5783875,0.15966819462676843,125669.64545369148,,,0.8451624373767439,0.8743740767182997,1.0,1.0
477,0.0011837381676741642,0.5785,0.08239684284975131,125935.4364669323,,,0.8371176722814506,0.8743162976858837,1.0,1.0
478,0.0011701888521201908,0.5779875,0.08356823098535339,126200.389575243,,,0.8362345636191073,0.866797332754216,1.0,1.0
479,0.0011194553488167002,0.57813125,0.05282077694622179,126469.81475234032,,,0.8360345808003595,0.8822055878840227,1.0,1.0
480,0.0011492913177789889,0.577925,0.0641226017071555,126736.88235330582,,,0.8359142892968936,0.8737900182232144,1.0,1.0
481,0.003523069631592079,0.5785374999999999,0.08857626128010451,127005.08591604233,,,0.8431422668439819,0.8619517679420985,1.0,1.0
482,0.0011124188051326199,0.5779000000000001,0.05378167387098074,127269.97760295868,,,0.8361124712277349,0.8612970339704036,1.0,1.0
483,0.0010936025197224807,0.5778625000000001,0.05134238448614876,127537.71101903915,,,0.8356505539995192,0.863771553362523,1.0,1.0
484,0.004318060510013311,0.57766875,0.1528952479517708,127803.33834028244,,,0.8419192522453025,0.8715510589944331,1.0,1.0
485,0.0018518167747970438,0.5777187500000001,0.08252484989352524,128069.20094561577,,,0.8373927574562704,0.8639130682518849,1.0,1.0
486,0.0010647611929016421,0.57766875,0.047976669808849695,128335.4623863697,,,0.8358649597671808,0.8597479060910524,1.0,1.0
487,0.0019304494702737428,0.5774874999999999,0.09016475615402063,128602.10824561119,,,0.836506627706506,0.8555631107805151,1.0,1.0
488,0.0010349840758863138,0.57769375,0.05070650754496455,128869.70061278343,,,0.835899631165138,0.8630540370306846,1.0,1.0
489,0.007684632356904331,0.57785625,0.12513484234611194,129133.15265798569,,,0.8394161927333378,0.867344267290896,1.0,1.0
490,0.0010509242578336853,0.5777875,0.06428334009833633,129398.29525589943,,,0.8363530177831998,0.8649541045328701,1.0,1.0
491,0.0010153494324185886,0.57801875,0.0687778368126601,129664.45908236504,,,0.8357236573357137,0.859149867548972,1.0,1.0
492,0.003645363762552733,0.57754375,0.07671742442374428,129929.25207066536,,,0.8420677347633341,0.8599385341347738,1.0,1.0
493,0.0010000279065934593,0.57780625,0.05692553136808177,130195.8788394928,,,0.8358750338238304,0.8657970864141888,1.0,1.0
494,0.000976965923109674,0.5774187500000001,0.05175430423890551,130461.19657993317,,,0.8355096578773685,0.8644101615670288,1.0,1.0
495,0.002537636658053089,0.5779875,0.0943660807174941,130721.6033437252,,,0.8423249112687334,0.8592798802361307,1.0,1.0
496,0.0009647292288718745,0.5775812499999999,0.057211302143211164,130972.65642404556,,,0.835922006906143,0.8766215786488862,1.0,1.0
497,0.0009610087625333109,0.5778125000000001,0.05118714477866888,131225.51416301727,,,0.835723506945018,0.8556188002170708,1.0,1.0
498,0.0009366070067699183,0.5777875,0.06100902478210628,131473.64868497849,,,0.8354940512787994,0.8597455021050684,1.0,1.0
499,0.0009193080881232163,0.57764375,0.05228638976501922,131719.30247735977,,,0.8354267150899009,0.8600010624144209,1.0,1.0
500,0.0009103492491703947,0.5775874999999999,0.04698535293961565,131971.82040429115,,,0.8351662675241733,0.8555579273177154,1.0,1.0
