iter,loss,accuracy,convergence_score,time,epsilon,best_alpha,auc_attack_before,auc_attack_after,max_norm,noise_multiplier
1,2.222579492628574,0.1024125,4.56471833884716,260.47644448280334,,,0.5218420497537976,0.5215950539999177,1.0,1.0
2,2.2961602717638017,0.11132500000000001,2.2382629409432413,513.1221437454224,,,0.5240943644148236,0.5195207747205215,1.0,1.0
3,2.2939087219536307,0.12755,1.3509853854775429,774.5223462581635,,,0.5226716097796217,0.5225270346240726,1.0,1.0
4,2.274141926318407,0.16673749999999998,0.9131209404518207,1031.6344392299652,,,0.5260618377757239,0.5259156371459233,1.0,1.0
5,2.2183296322822574,0.16849375,0.6681494948764642,1287.292091846466,,,0.5288624445499162,0.5291684327909891,1.0,1.0
6,2.1479179918766023,0.1970875,0.42963188197463753,1547.610428094864,,,0.5274874106868409,0.5262337536931134,1.0,1.0
7,2.1077341817319395,0.22666875000000003,0.33002383410930636,1808.9853601455688,,,0.5213822040428124,0.5215876930602095,1.0,1.0
8,2.07201986014843,0.2376375,0.19346289505871633,2066.9671211242676,,,0.5206574558550032,0.5206974563061703,1.0,1.0
9,2.050166082754731,0.24649375,0.15180601488488416,2327.98215341568,,,0.5208989071304795,0.5202013245828135,1.0,1.0
10,2.02034746594727,0.2625875,0.12286441239217917,2582.422196626663,,,0.5197937794626111,0.5188959701209859,1.0,1.0
11,1.978738256543875,0.27780625000000003,0.11564263300970197,2836.238039493561,,,0.5209594921523182,0.5194111263609227,1.0,1.0
12,1.9440381679683925,0.29445,0.109045652517428,3096.625566959381,,,0.5202220188790814,0.518806414160679,1.0,1.0
13,1.9026229970157145,0.31751250000000003,0.10949185307448109,3355.2676758766174,,,0.5200374479805405,0.518580363219528,1.0,1.0
14,1.8405995108187199,0.34785625,0.12697671130299568,3614.450352191925,,,0.5227149889236045,0.5226346318095892,1.0,1.0
15,1.750796179100871,0.37771875,0.1376896840520203,3873.130373954773,,,0.5278464911528422,0.5274295151344897,1.0,1.0
16,1.6766559530049563,0.39919375,0.14955823545654615,4128.640678167343,,,0.5314544499569811,0.5311455696025955,1.0,1.0
17,1.6297526836395262,0.41654375,0.16128629852707188,4384.283504247665,,,0.5317954420447935,0.5298856056493855,1.0,1.0
18,1.5868606954813003,0.4299875,0.1797990403448542,4645.447429656982,,,0.5318599773591202,0.5292494669319554,1.0,1.0
19,1.548612005263567,0.44095625000000005,0.20016369745135307,4900.507162094116,,,0.5330819375776048,0.5296423822851167,1.0,1.0
20,1.5136148400604725,0.45223125,0.2263631424556176,5159.530441999435,,,0.5334665889850041,0.529243398690703,1.0,1.0
21,1.48906230032444,0.46514375,0.2592778061827024,5412.375623226166,,,0.5347417877846881,0.5305820727213533,1.0,1.0
22,1.4577118888497353,0.47441875,0.2616001623993119,5667.937755823135,,,0.5355658716643704,0.530368582066352,1.0,1.0
23,1.4276597186923028,0.486525,0.257659625634551,5926.450178384781,,,0.5360713605061385,0.529921054994305,1.0,1.0
24,1.4035950075834989,0.49515624999999996,0.2724378672117988,6181.366647720337,,,0.5378762677936523,0.5313205613016531,1.0,1.0
25,1.3750710003077984,0.5032625,0.28353370130062105,6442.094361543655,,,0.538482474507105,0.5314632241693322,1.0,1.0
26,1.3461482681334018,0.51366875,0.2969137276212374,6700.302901506424,,,0.5394365037483724,0.5313757495313344,1.0,1.0
27,1.322032904624939,0.5208375000000001,0.31016621353725593,6960.35752081871,,,0.5417047810551716,0.5324778449674692,1.0,1.0
28,1.2958880562335253,0.5282125,0.34619221662481625,7219.693401813507,,,0.54401333370792,0.5333564023685465,1.0,1.0
29,1.2647065181285142,0.5356062500000001,0.37150630603233975,7476.301622629166,,,0.547267845394773,0.5358770215640472,1.0,1.0
30,1.2404797062277795,0.541275,0.4022766169160604,7732.08091545105,,,0.5478235365320048,0.5359200148590348,1.0,1.0
31,1.2142267011106014,0.553325,0.41305144044260184,7995.705552339554,,,0.5512771164818018,0.5384764905381954,1.0,1.0
32,1.1895760495215655,0.56001875,0.45844700808326405,8247.746340990067,,,0.5544786074314417,0.5408736373378901,1.0,1.0
33,1.1583613639697432,0.56638125,0.4633482580383619,8506.225536823273,,,0.5589406798110538,0.5443674962639202,1.0,1.0
34,1.131261576525867,0.5719937500000001,0.4749488779654106,8769.833396434784,,,0.5647384986331605,0.5476069092628921,1.0,1.0
35,1.107218024507165,0.575275,0.49338210200270016,9028.021025896072,,,0.5718990235529808,0.5520029404276844,1.0,1.0
36,1.0843841208145024,0.5820812500000001,0.517179275676608,9288.985625267029,,,0.5741624947995718,0.555050638671696,1.0,1.0
37,1.0529842454940082,0.58511875,0.5253929334382216,9546.799629211426,,,0.5796869236936252,0.5600536791443792,1.0,1.0
38,1.0331230767071244,0.5867687500000001,0.5936123842994372,9809.298866271973,,,0.5869347052804867,0.5655267210592768,1.0,1.0
39,1.0094871038571,0.590475,0.5688579801470042,10070.157890558243,,,0.5910004703493837,0.5685749917991352,1.0,1.0
40,0.9820692459121346,0.5976812499999999,0.5934126034379006,10333.023864269257,,,0.601869108911361,0.5746728874839476,1.0,1.0
41,0.9545210449025034,0.59899375,0.5687417551875115,10594.820181846619,,,0.6037737469034756,0.5782358683816657,1.0,1.0
42,0.9329389465972782,0.59876875,0.6146818446616332,10852.112892866135,,,0.6102315540502151,0.5838547732857708,1.0,1.0
43,0.9048729861155151,0.5994250000000001,0.6445053782314062,11112.77928686142,,,0.6153346937266688,0.5873414669040611,1.0,1.0
44,0.8832779860123992,0.6045375000000001,0.6409164384007454,11374.638844490051,,,0.6247775832223355,0.5938364380272099,1.0,1.0
45,0.8541994443163275,0.6065624999999999,0.6527364910890658,11629.403284311295,,,0.6313578142487177,0.5993375742817761,1.0,1.0
46,0.8427113754674793,0.6069625000000001,0.6808008593817552,11888.506511688232,,,0.6361751404497273,0.6038040970506411,1.0,1.0
47,0.82132421862334,0.6056874999999999,0.7054864287376403,12151.116455078125,,,0.6397691078755294,0.6078682032462843,1.0,1.0
48,0.792143008671701,0.60753125,0.7567665984233221,12411.377751350403,,,0.648646025974887,0.6131036849359601,1.0,1.0
49,0.7744826378300785,0.60795625,0.7554161259283622,12665.315910816193,,,0.6520252268749107,0.6172093537283657,1.0,1.0
50,0.7610257333144546,0.6074937499999999,0.746987879027923,12922.064336776733,,,0.6574952743616116,0.621300278098514,1.0,1.0
51,0.7298590609803796,0.60771875,0.7849330532054106,13179.692808389664,,,0.6610397447242483,0.6257131438628368,1.0,1.0
52,0.7214772073552013,0.6056125000000001,0.7945507255693277,13440.642939329147,,,0.6681293957259806,0.6294373065734402,1.0,1.0
53,0.6872597290202975,0.60835,0.7949780575931072,13700.437830209732,,,0.6735004230629599,0.6359943597775415,1.0,1.0
54,0.6716221916489303,0.6109875,0.7946431097884973,13957.956371307373,,,0.6819140115701039,0.641148865082371,1.0,1.0
55,0.6608266851864755,0.6056374999999999,0.8074782431125641,14218.428257703781,,,0.6843968588091685,0.6444626582521955,1.0,1.0
56,0.6396797146648169,0.60961875,0.7858500234782696,14473.580043077469,,,0.6894599697276106,0.648807529748539,1.0,1.0
57,0.618760755378753,0.605925,0.8125998290876547,14727.514459133148,,,0.6947430494811264,0.6547206461678434,1.0,1.0
58,0.6024823397397995,0.60820625,0.8302394817272822,14988.378870248795,,,0.6992594977931947,0.6613122771164162,1.0,1.0
59,0.5937215120531619,0.6052187500000001,0.7771624406178792,15242.540750026703,,,0.707225195467982,0.6621069314229073,1.0,1.0
60,0.5664360374212265,0.6020125,0.8220987886190414,15502.900660991669,,,0.7091340305239743,0.6687449256940181,1.0,1.0
61,0.5554766532965005,0.60290625,0.8921260344485442,15765.25910115242,,,0.7133079501972969,0.6739325752301553,1.0,1.0
62,0.5266198762692511,0.6041874999999999,0.9382732354104519,16024.990510940552,,,0.7189120810224139,0.6796404982265176,1.0,1.0
63,0.5125598896294832,0.6046625,0.9582402830322584,16287.995196580887,,,0.7348763049141465,0.685421064714125,1.0,1.0
64,0.4936123332008719,0.6026125,0.9039753740032513,16547.336977005005,,,0.7299461163658333,0.6876512147348353,1.0,1.0
65,0.4859112981706858,0.6025124999999999,0.911562093347311,16805.25447821617,,,0.7398927466606351,0.6935466344031092,1.0,1.0
66,0.4575739153660834,0.6021375,0.9438367453714211,17058.981798648834,,,0.7472555098497065,0.701759720345659,1.0,1.0
67,0.4446826740168035,0.6024875000000001,0.9256991825997829,17317.56080555916,,,0.7472072404587029,0.7001719683959278,1.0,1.0
68,0.4197064398787915,0.6023625,0.9368797481060028,17574.786770105362,,,0.7552800682962191,0.7071784024246093,1.0,1.0
69,0.4200374904554337,0.59898125,0.9926880344748497,17833.378521203995,,,0.7544201125804276,0.7125792437042248,1.0,1.0
70,0.3976969494484365,0.6005437499999999,0.8837223663926125,18091.92746949196,,,0.7583991237094356,0.7149304413869954,1.0,1.0
71,0.40046850871294737,0.598225,0.9058876521885395,18350.54934310913,,,0.7712468955762606,0.7176361239709563,1.0,1.0
72,0.38220797698013487,0.59775625,0.9693208309511344,18612.448088645935,,,0.775262011695728,0.7230063054043594,1.0,1.0
73,0.3444637891836464,0.597225,0.9101212268074353,18870.829020500183,,,0.7899209491103738,0.7268544584432957,1.0,1.0
74,0.3505322419572622,0.59595,0.8966360829770565,19129.692383289337,,,0.7868241203162766,0.7311630174609713,1.0,1.0
75,0.3123574282042682,0.5941125,0.9351942238708337,19391.105664014816,,,0.7840573272068216,0.7337580895535558,1.0,1.0
76,0.30220386660657816,0.5961937500000001,0.9524213403463364,19645.38233613968,,,0.7981845761538366,0.737432515610085,1.0,1.0
77,0.3017622260376811,0.5943750000000001,0.9067113707462947,19904.67951965332,,,0.8040442314777421,0.74213492298334,1.0,1.0
78,0.28061050495598466,0.59415,0.9155879567066828,20164.90542435646,,,0.8106830518750595,0.7452402892392487,1.0,1.0
79,0.2537522132508457,0.595025,0.8965097611149152,20422.1959900856,,,0.8067638852616522,0.7497293517634522,1.0,1.0
80,0.2513772845035419,0.59276875,0.8781435112158458,20679.830363035202,,,0.8181246380617558,0.7543677877689599,1.0,1.0
81,0.24893453193362805,0.5909125000000001,0.8179429853955905,20938.261479377747,,,0.8203775614972841,0.7550780437699725,1.0,1.0
82,0.23299761607777325,0.591125,0.8611229188740254,21200.147287607193,,,0.8239706411891998,0.7594107873032752,1.0,1.0
83,0.23543473358731717,0.59094375,0.8608822017908097,21459.346975564957,,,0.8226586553231826,0.7621034425208685,1.0,1.0
84,0.20089873403776437,0.59243125,0.8533942700674136,21719.890599012375,,,0.8312349715935178,0.7677783595177672,1.0,1.0
85,0.18466721712611617,0.5908249999999999,0.8453327876826128,21978.91340661049,,,0.8335972258980151,0.7687770574676771,1.0,1.0
86,0.16621051025576888,0.590625,0.8175551623106003,22236.17984342575,,,0.8442685301659926,0.773594095160169,1.0,1.0
87,0.17381885771173983,0.5907,0.8759868015845617,22495.94272994995,,,0.8379913795478282,0.7758629126003909,1.0,1.0
88,0.14264951448421925,0.5884687500000001,0.9141341296335062,22756.682668685913,,,0.8399355616800078,0.7764873526418157,1.0,1.0
89,0.14522520538885145,0.5891375,0.8643938096861045,23010.99834394455,,,0.8527086490060846,0.7812956068501076,1.0,1.0
90,0.12838142255786805,0.58850625,0.866125653932492,23270.737726211548,,,0.8584793339824677,0.7826722700327626,1.0,1.0
91,0.12998231237288566,0.5874125,0.8487272011737029,23532.382187366486,,,0.854685983536486,0.7839978784676107,1.0,1.0
92,0.1546678404789418,0.5883562499999999,0.8591120339930057,23791.51867866516,,,0.8574173251062038,0.7893105426962598,1.0,1.0
93,0.1213621931616217,0.5872375000000001,0.8799846085409323,24051.39492225647,,,0.8590675576195334,0.7924019799736803,1.0,1.0
94,0.10205021096626296,0.58685625,0.8211238063871861,24311.581076860428,,,0.8630020028771903,0.7952525593952413,1.0,1.0
95,0.1045093486784026,0.5855625,0.8239648560682933,24565.040140390396,,,0.8578564554456984,0.79175971758334,1.0,1.0
96,0.09540903968736529,0.58604375,0.854236901178956,24825.819930553436,,,0.8653489733879361,0.7990901532876655,1.0,1.0
97,0.08786630305694416,0.5862,0.7949276946485042,25086.169998645782,,,0.8636664611838635,0.8005540055592014,1.0,1.0
98,0.08587575550191104,0.5851937500000001,0.875699698428313,25345.773643493652,,,0.8639881923563839,0.8017384191235463,1.0,1.0
99,0.08743514955276624,0.58480625,0.8850062261025111,25606.589293003082,,,0.8692916432544484,0.8047181558158389,1.0,1.0
100,0.07679176519159228,0.5849,0.8382181551307439,25868.430044174194,,,0.8702745088013069,0.8049443507026293,1.0,1.0
101,0.08109116799896583,0.58338125,0.846394494175911,26130.523629426956,,,0.8694002548582659,0.8079371430964292,1.0,1.0
102,0.07176756469998509,0.5843437499999999,0.819173447539409,26394.793868541718,,,0.8648350166131855,0.810108246416441,1.0,1.0
103,0.0701236452208832,0.5842,0.7714559728900592,26653.243104457855,,,0.8683372814488755,0.8101915039451313,1.0,1.0
104,0.0648570645309519,0.5832125,0.7236532643437386,26909.251995563507,,,0.8681492274130457,0.8098543622130757,1.0,1.0
105,0.06545499004423619,0.58365625,0.7175262931734323,27165.29767870903,,,0.8666812055629294,0.81161726526712,1.0,1.0
106,0.0643595494213514,0.582275,0.7665103981892268,27421.470254182816,,,0.8711943295439849,0.8144470983496894,1.0,1.0
107,0.06259616084280423,0.5822875000000001,0.7246156933406989,27677.269771575928,,,0.8695908085347512,0.813983764067411,1.0,1.0
108,0.05825097695924342,0.5825374999999999,0.7549871496856213,27936.164966583252,,,0.8690502173587059,0.8187329785529929,1.0,1.0
109,0.05681167418370023,0.58166875,0.7105693538983663,28195.915294647217,,,0.8713310939866266,0.8187460368684907,1.0,1.0
110,0.055167472834000364,0.5811875,0.703785682717959,28456.074760198593,,,0.8712581417734236,0.8189451363140232,1.0,1.0
111,0.058327910909429195,0.58165625,0.7417279298106829,28715.24138212204,,,0.8715284258457476,0.823174637530292,1.0,1.0
112,0.04932079320424236,0.58155625,0.7170795438190302,28975.224711418152,,,0.8721091664336461,0.8216425032505424,1.0,1.0
113,0.04884949444676749,0.58141875,0.6930567947526772,29237.36224961281,,,0.8676513580604233,0.8231598936181379,1.0,1.0
114,0.04769198228605092,0.5821375,0.7152684815227985,29499.40172791481,,,0.8741928296989337,0.8261310534557688,1.0,1.0
115,0.046319616440450774,0.58144375,0.7328064685066541,29763.54788708687,,,0.8759293102031414,0.8247113180863828,1.0,1.0
116,0.044009360467316586,0.5819125,0.691468387718002,30023.43529200554,,,0.8735653740564253,0.8304715741672895,1.0,1.0
117,0.04397562946542166,0.58069375,0.6987215571105481,30281.706404924393,,,0.8813838327637362,0.8299583855169552,1.0,1.0
118,0.042003350227605554,0.5802375,0.7246452977259954,30542.32187771797,,,0.8835380795853085,0.8304665741263422,1.0,1.0
119,0.04018402023357339,0.5803687500000001,0.7297362472862006,30804.90402197838,,,0.8798718825404422,0.833507209367785,1.0,1.0
120,0.03874401090433821,0.580575,0.6366594615081946,31066.145973205566,,,0.8751503239559095,0.8318605914127796,1.0,1.0
121,0.045573463180335234,0.57940625,0.658189345151186,31323.599452495575,,,0.8802982935528106,0.8320756727457257,1.0,1.0
122,0.03637360970024019,0.5804,0.6399168539792299,31581.49354839325,,,0.8812032106971239,0.8351842714385578,1.0,1.0
123,0.0402249350969214,0.57941875,0.7020807596544425,31842.9375371933,,,0.8866845394989233,0.8347912170213867,1.0,1.0
124,0.03452935938257724,0.5795125,0.6402325061460336,32103.44207382202,,,0.878362520277683,0.8357456778245113,1.0,1.0
125,0.03829388037556783,0.57849375,0.6895710291961828,32364.48631668091,,,0.8801309981745582,0.8340573588145607,1.0,1.0
126,0.0338817133451812,0.5795875,0.602680295581619,32627.65043234825,,,0.8782394648887608,0.8392292978412582,1.0,1.0
127,0.034345452242996545,0.5782375,0.6356476070980231,32888.14110469818,,,0.8806191929955796,0.8383335196214844,1.0,1.0
128,0.03166499514190946,0.578525,0.6353279671321312,33145.29995679855,,,0.8824916753378211,0.8416262430952739,1.0,1.0
129,0.033218292653327805,0.57784375,0.6264565348625183,33402.71093034744,,,0.8823004014688944,0.8408716713761695,1.0,1.0
130,0.03001750600815285,0.5782687500000001,0.6587385316689809,33665.78870129585,,,0.8851905331710441,0.8421312211258325,1.0,1.0
131,0.032734871230786666,0.5764812500000001,0.7344450265169143,33924.30020022392,,,0.8850901418600501,0.8435127687594355,1.0,1.0
132,0.02582484796876088,0.57745,0.5741374750932058,34181.12902665138,,,0.8813491950853201,0.8420390648235441,1.0,1.0
133,0.029035051784012465,0.57711875,0.6159737373391787,34443.55938458443,,,0.8828398423093227,0.8419479394493075,1.0,1.0
134,0.029143083887174723,0.577125,0.6164055912444989,34703.0140337944,,,0.8943893007939885,0.8422118677443573,1.0,1.0
135,0.026283816905925052,0.5772875,0.5845298958321412,34963.42877244949,,,0.884497034244897,0.8435914681040153,1.0,1.0
136,0.02654554437031038,0.57689375,0.6044646432002385,35223.54037427902,,,0.8868427229877904,0.844308361053016,1.0,1.0
137,0.026606132797314785,0.5762375,0.5589925114065408,35477.99149918556,,,0.8939572514371599,0.8433362555784358,1.0,1.0
138,0.02589938421151601,0.5754874999999999,0.5836129049460094,35736.817414045334,,,0.8886113154787836,0.8422658495443969,1.0,1.0
139,0.025318369604065083,0.5755125,0.5878196780880293,35996.52285313606,,,0.8884073677388965,0.8452068003430522,1.0,1.0
140,0.02424555661273189,0.5763562499999999,0.5465040938307841,36252.96469926834,,,0.8937083429398284,0.8454091629724823,1.0,1.0
141,0.024683928501326592,0.5755875,0.585707555214564,36508.660673856735,,,0.8779438656243275,0.8475690406400088,1.0,1.0
142,0.022312457658699714,0.57530625,0.5587299471100171,36768.85973381996,,,0.8856445269095827,0.8482651317544994,1.0,1.0
143,0.024451452807988973,0.5749249999999999,0.6232347109665474,37029.4408531189,,,0.8868331178376283,0.8498847341881541,1.0,1.0
144,0.021330012465477922,0.57525625,0.6118354645868143,37285.39980721474,,,0.9031473959142453,0.8493721841792949,1.0,1.0
145,0.022952793465810827,0.5740937500000001,0.6349433060735464,37548.6667034626,,,0.8914323134710167,0.8481833891488056,1.0,1.0
146,0.022064743665396236,0.5746625,0.5939002364873887,37807.98859500885,,,0.9006915948483079,0.8510930173123713,1.0,1.0
147,0.019460559022263624,0.57446875,0.552593336502711,38063.558878183365,,,0.8979946694076528,0.8465979929286322,1.0,1.0
148,0.021653355009038935,0.57375625,0.6109053034335374,38324.36672258377,,,0.8970745630622261,0.8493837217112861,1.0,1.0
149,0.019136909273220225,0.57473125,0.5718304884930452,38583.29126048088,,,0.8935950249970687,0.8526418284087856,1.0,1.0
150,0.018886475102044643,0.5743375,0.5789737434436878,38842.336611032486,,,0.8954580438876736,0.8533923994660663,1.0,1.0
151,0.019436819627298974,0.5732999999999999,0.5554575713972251,39098.019075870514,,,0.8774860996125642,0.8528698344012265,1.0,1.0
152,0.01898401920043398,0.5734187500000001,0.5660091030100981,39355.291665792465,,,0.8913131920782469,0.8548039492727384,1.0,1.0
153,0.02036657545686467,0.5721937500000001,0.5659703435376287,39614.575372457504,,,0.8882899796571286,0.8530167897719056,1.0,1.0
154,0.01795812667260179,0.5732875,0.5367591896404823,39875.76857805252,,,0.8863973729786515,0.8528743220066561,1.0,1.0
155,0.019058248621877282,0.5730937500000001,0.5507996916770935,40135.35376524925,,,0.8943339296674669,0.8561793486664013,1.0,1.0
156,0.01695531241421122,0.5735,0.4693513731161753,40393.755313158035,,,0.8838252520034753,0.8528878294732485,1.0,1.0
157,0.01771247859869618,0.5735375,0.5639164475103219,40651.710939884186,,,0.8856965869916519,0.8554964521342557,1.0,1.0
158,0.015883205081627237,0.5730875,0.5071625124663115,40906.42220067978,,,0.8876552819612693,0.8562375535255705,1.0,1.0
159,0.02191638752556173,0.572325,0.6224939210961262,41163.537598609924,,,0.9033846481367749,0.8594004288197732,1.0,1.0
160,0.017223674047272652,0.5730875,0.546264486014843,41427.53587794304,,,0.8782843897918362,0.8556645033162364,1.0,1.0
161,0.015258020511828362,0.5732375000000001,0.5204430278390646,41687.208909749985,,,0.8918036598731245,0.8602562485026299,1.0,1.0
162,0.015110921644372865,0.5731625,0.5112161107361317,41945.05327343941,,,0.8739509657818032,0.8588185328043506,1.0,1.0
163,0.015275589098746423,0.57296875,0.5162473247696956,42201.8982462883,,,0.8879055631209664,0.8647427175474296,1.0,1.0
164,0.01812285064370371,0.57175,0.5957651893297832,42457.22140407562,,,0.8869925282788911,0.8585172535232533,1.0,1.0
165,0.01548635109065799,0.573,0.5170295160263777,42716.482359170914,,,0.8841147618467762,0.858944619712914,1.0,1.0
166,0.01469230657967273,0.57321875,0.5047695674002171,42976.35134935379,,,0.8710607670998374,0.8610508399834457,1.0,1.0
167,0.014377907647576647,0.57260625,0.45151767482360206,43236.227184057236,,,0.8896807480391034,0.8584694034284817,1.0,1.0
168,0.014729371567955243,0.5731249999999999,0.4465537538131078,43494.92471122742,,,0.8802233892930119,0.8590974892391985,1.0,1.0
169,0.014377390002482572,0.57265,0.47189165465533733,43752.354132413864,,,0.8602560280946608,0.8611499204626383,1.0,1.0
170,0.01443400609132368,0.57120625,0.4835867164035638,44009.11505842209,,,0.8994527333164867,0.8598674614795292,1.0,1.0
171,0.013973450688354205,0.5729,0.45418572885294756,44265.09371304512,,,0.8654452006413988,0.8632417953698802,1.0,1.0
172,0.013216034728975503,0.57260625,0.48410056295494236,44527.68728065491,,,0.8728060239394498,0.8653594917849481,1.0,1.0
173,0.014945241068198813,0.5723437499999999,0.4696349340180556,44786.74284386635,,,0.8693122395703158,0.8645237911441754,1.0,1.0
174,0.012187698933121282,0.57236875,0.4745786568770806,45043.70479631424,,,0.8641899763250166,0.8701819013678406,1.0,1.0
175,0.015295968926511704,0.5719375,0.484174112478892,45301.69732546806,,,0.8706640089850193,0.8671042368103787,1.0,1.0
176,0.015898610223666766,0.57121875,0.5294055250783761,45557.235832214355,,,0.8637902097491168,0.8707833599071862,1.0,1.0
177,0.011620111069350968,0.57251875,0.42752218699703615,45815.78921151161,,,0.8734839214424808,0.8664653864358425,1.0,1.0
178,0.014786835403356235,0.5712124999999999,0.46024384163320065,46075.49428367615,,,0.8734636187151752,0.8641041006847572,1.0,1.0
179,0.011935468137380667,0.57179375,0.4520357877636949,46334.9533598423,,,0.8768117492287282,0.8703945025816422,1.0,1.0
180,0.012231350375805049,0.57203125,0.4175992951417963,46593.087775707245,,,0.8745184024311659,0.8694395224435467,1.0,1.0
181,0.013198516036209184,0.5713937499999999,0.41898375942061344,46851.14281010628,,,0.8655752896066258,0.8718580326028971,1.0,1.0
182,0.014528406033059582,0.5713437499999999,0.45319986864924433,47111.88749885559,,,0.8838782008142574,0.8712044758633949,1.0,1.0
183,0.012329846879583783,0.5713625,0.46958232869704564,47370.448270082474,,,0.885071444607863,0.8726516040863843,1.0,1.0
184,0.011167343423585408,0.57099375,0.4617187508692344,47628.53211092949,,,0.8689965828363484,0.8755319022723765,1.0,1.0
185,0.01133737125492189,0.57118125,0.44282257966697214,47884.90846300125,,,0.8631402499698716,0.8718657271244741,1.0,1.0
186,0.013977097361930646,0.5704875,0.4416109575579564,48142.67930459976,,,0.8707001971592576,0.874238160667411,1.0,1.0
187,0.010790565918432549,0.5711437500000001,0.44075807357827823,48400.07278037071,,,0.8700325179135514,0.871449107817763,1.0,1.0
188,0.010327757139748428,0.57115,0.409289933865269,48658.636526584625,,,0.8632769234938176,0.8745664411346656,1.0,1.0
189,0.011537045148725156,0.5705875,0.48811409485836826,48916.04854822159,,,0.8607712992572916,0.8766632559060117,1.0,1.0
190,0.011111839301884174,0.571175,0.4629640998939673,49173.2837305069,,,0.871381406983836,0.8741900226420489,1.0,1.0
191,0.011041738120547963,0.5707249999999999,0.45834956808636584,49432.338004112244,,,0.8793392807783149,0.8748367384278974,1.0,1.0
192,0.008664791072078515,0.5710500000000001,0.3750345563516021,49689.87185835838,,,0.8637663363397104,0.8762704846496052,1.0,1.0
193,0.009606494852050673,0.5705687500000001,0.3904729522764683,49948.22163295746,,,0.8656009384641079,0.873162950606881,1.0,1.0
194,0.016667368162597992,0.56963125,0.4687664911771814,50206.75599813461,,,0.873568574513677,0.8725939208876139,1.0,1.0
195,0.031152745411964132,0.5668249999999999,0.526449666172266,50465.57719039917,,,0.8720579083408899,0.8772994546764517,1.0,1.0
196,0.011101144923304673,0.5702499999999999,0.43692595859368644,50723.84993767738,,,0.8688415081391969,0.8778570078269459,1.0,1.0
197,0.008746894201613032,0.5699624999999999,0.42018756673981744,50985.50130033493,,,0.8628522108990324,0.8830037487060346,1.0,1.0
198,0.019307145971106367,0.56709375,0.49107220532993473,51244.60910820961,,,0.8457500449129611,0.8791167324747657,1.0,1.0
199,0.010422407134319654,0.5697000000000001,0.4573377786204219,51505.052953243256,,,0.8666474398099836,0.87607921570518,1.0,1.0
200,0.008969085275020917,0.5705687500000001,0.4174487978219986,51763.322677373886,,,0.8698569296141745,0.8797444791544513,1.0,1.0
201,0.008280946940067225,0.5698687499999999,0.4182159927363197,52018.39841341972,,,0.8563993574864526,0.8839583994543132,1.0,1.0
202,0.008480424858862533,0.5696062500000001,0.3790905681749185,52272.93579721451,,,0.8534977607018901,0.8846100633851165,1.0,1.0
203,0.033734921937866605,0.56616875,0.5714936701580882,52532.78356528282,,,0.8612087329836084,0.8749091498547626,1.0,1.0
204,0.010958746101823636,0.57011875,0.5444362718611956,52793.18283009529,,,0.8721916169943016,0.8830032751603071,1.0,1.0
205,0.009341224518720992,0.57079375,0.44114825055003165,53050.80943393707,,,0.8555523187968068,0.8827826526745922,1.0,1.0
206,0.008074980643868912,0.57048125,0.406577707392474,53309.1362426281,,,0.8534723630261098,0.8854251675881681,1.0,1.0
207,0.007965133633115329,0.57060625,0.38768040457119546,53566.46394610405,,,0.8523623962067512,0.8874975583908418,1.0,1.0
208,0.007829794065037277,0.5702437499999999,0.39112685564905403,53822.24339079857,,,0.8576728321097924,0.8857846481063157,1.0,1.0
209,0.009901291277492421,0.5690500000000001,0.432568384706974,54081.438227176666,,,0.853689957513879,0.888124997825344,1.0,1.0
210,0.00805586043279618,0.5692124999999999,0.4091064723208547,54338.75699305534,,,0.853699550353851,0.8849415992547216,1.0,1.0
211,0.00793577576696407,0.56901875,0.39198169379184644,54600.61972475052,,,0.8615743963207301,0.8855335363001583,1.0,1.0
212,0.010771424297854536,0.5685500000000001,0.42480611329277357,54857.38549542427,,,0.8630654870179335,0.8864708129162923,1.0,1.0
213,0.00842317409988027,0.5676625,0.37159748567889134,55114.10869216919,,,0.8547104397766436,0.892388921347944,1.0,1.0
214,0.007775514207605738,0.5685625,0.374136916299661,55374.38830471039,,,0.8584471152023687,0.8926443814828255,1.0,1.0
215,0.006584244449186372,0.56895,0.2746363985041777,55632.55004620552,,,0.8513987362974937,0.8870237710973596,1.0,1.0
216,0.008088223647791892,0.568025,0.3987829783931375,55892.34969353676,,,0.8697981617734484,0.8890311572189682,1.0,1.0
217,0.04516659990476911,0.5631812500000001,0.5521878995001316,56150.850283145905,,,0.85374797528041,0.8836078171191959,1.0,1.0
218,0.008313508980791084,0.5681125,0.43384874363740283,56410.116020679474,,,0.8517743883085143,0.8887156627166275,1.0,1.0
219,0.009974027670250508,0.5680375,0.4179451383650303,56671.69498229027,,,0.8637625361661267,0.891762955887246,1.0,1.0
220,0.006623223926726495,0.56861875,0.33227245851109427,56933.35267877579,,,0.8490073950218896,0.8929833153840818,1.0,1.0
221,0.007127047332323855,0.56858125,0.38131035026162863,57192.03652763367,,,0.8483385918088231,0.8953052661172323,1.0,1.0
222,0.006271309834119165,0.56845625,0.33621557218333087,57453.362899303436,,,0.842966423355936,0.896877841153121,1.0,1.0
223,0.006970010696386452,0.5684625000000001,0.4030105936030547,57712.05364251137,,,0.8510611290001362,0.896857481220894,1.0,1.0
224,0.00693660646720673,0.56828125,0.37401891437669593,57971.57336974144,,,0.8444114272125866,0.8954103461852962,1.0,1.0
225,0.010771766461402876,0.5680875,0.44474501963704827,58233.03311371803,,,0.8616735997334241,0.89565519720841,1.0,1.0
226,0.00861968590397737,0.56888125,0.4482621193553011,58491.51841592789,,,0.8520483539441888,0.8941710316370708,1.0,1.0
227,0.006273233619867824,0.5693874999999999,0.34083454478532077,58748.8552069664,,,0.8424027984221406,0.8980764979537406,1.0,1.0
228,0.0066880861799290875,0.5691062499999999,0.3299719096471866,59006.92814207077,,,0.8434136127033527,0.8984826786831617,1.0,1.0
229,0.006147714570397511,0.5681812499999999,0.31732867235938705,59268.54372882843,,,0.8441105012799967,0.9010204675735365,1.0,1.0
230,0.005956515220168513,0.5687625000000001,0.29531243375192084,59528.68819189072,,,0.8449989012341773,0.900387502840397,1.0,1.0
231,0.005516923402319663,0.56806875,0.2722259466225902,59784.90295338631,,,0.8474143702682613,0.9013210873079341,1.0,1.0
232,0.010409251670353115,0.56705625,0.3754517154147228,60041.38182806969,,,0.8542036808654511,0.9016898920663211,1.0,1.0
233,0.007279038674460026,0.5682750000000001,0.3739955964187781,60297.982290029526,,,0.86268407765696,0.9040535140948646,1.0,1.0
234,0.005366200725256931,0.5675687500000001,0.26712024100124837,60554.265369176865,,,0.8544860899014275,0.9004036388296699,1.0,1.0
235,0.008903993682179135,0.56723125,0.384094771121939,60813.05515241623,,,0.8569269129439601,0.8974372515250462,1.0,1.0
236,0.005929479784390424,0.567775,0.3092219622184833,61072.767028808594,,,0.845243476148179,0.900575038925278,1.0,1.0
237,0.006024074374727207,0.5674375,0.34716275446116923,61332.36355304718,,,0.8492992396312348,0.8999181872225298,1.0,1.0
238,0.005408527547115227,0.56703125,0.30726667748143277,61587.70022439957,,,0.8470817426076925,0.903281741021956,1.0,1.0
239,0.0051580245330114845,0.5674937499999999,0.29314882575223844,61850.79855847359,,,0.8452442902406341,0.9040417325911148,1.0,1.0
240,0.00533289338927716,0.5664312499999999,0.31690857180704674,62109.396003484726,,,0.8463746590370363,0.9034765525074762,1.0,1.0
241,0.009254355317534647,0.5666312499999999,0.3380009417732557,62370.267590761185,,,0.8670209438196792,0.9055630191027418,1.0,1.0
242,0.010043651106389006,0.56623125,0.4473344879845778,62628.54940748215,,,0.8694328702253344,0.9004111766702412,1.0,1.0
243,0.006277782416873378,0.5670875,0.3583635209128261,62887.00852108002,,,0.8553601806691413,0.904620911087652,1.0,1.0
244,0.007232511571055511,0.566125,0.34808087050914766,63142.88738441467,,,0.8534056551266853,0.9051115783405387,1.0,1.0
245,0.006011629089334746,0.5667187499999999,0.3153219153483709,63401.346698760986,,,0.8474171564097368,0.9069387843944163,1.0,1.0
246,0.004880296288320096,0.56715625,0.28051894108454384,63661.411663770676,,,0.8448391442394307,0.9062015524438357,1.0,1.0
247,0.005057622842286946,0.567525,0.2403464987874031,63920.700132369995,,,0.8393198751795277,0.9088175024777627,1.0,1.0
248,0.02134760467743035,0.56258125,0.48741419712702433,64178.383140563965,,,0.8515877028485999,0.9054198642102788,1.0,1.0
249,0.01454788496121182,0.565225,0.4876886640364925,64436.8613243103,,,0.853422464941771,0.9036800746161726,1.0,1.0
250,0.011041984095936642,0.5657749999999999,0.5309639329711596,64697.10633635521,,,0.8587481204767919,0.9054342259680253,1.0,1.0
251,0.007055117631534812,0.5664437499999999,0.4100183366487424,64958.442462444305,,,0.8612114386295283,0.9054458322816201,1.0,1.0
252,0.006241990205307957,0.5672250000000001,0.3717716717471679,65217.91872239113,,,0.8461701085356339,0.9022280084028462,1.0,1.0
253,0.005613868066575378,0.5672125,0.318570297708114,65475.387268304825,,,0.8474683137769438,0.9008230952144984,1.0,1.0
254,0.004475753814040218,0.5670375000000001,0.23695299867540598,65732.62773680687,,,0.8445870679024945,0.9075989504114805,1.0,1.0
255,0.0057291241020720925,0.5671625,0.3339859186361233,65992.27430176735,,,0.8459548550464002,0.9098517887595751,1.0,1.0
256,0.004448202309868065,0.5666625000000001,0.25743140367170175,66253.37820339203,,,0.8444778849836019,0.9085055282127434,1.0,1.0
257,0.005860272863355932,0.56731875,0.2583968037118514,66510.61362671852,,,0.8503795686133493,0.9093319298462016,1.0,1.0
258,0.00923756966876681,0.56625625,0.39383951301376025,66771.20557117462,,,0.8602423113237185,0.9112346677094374,1.0,1.0
259,0.004817228639149107,0.56709375,0.33556755607326827,67029.22046422958,,,0.843879225920322,0.9108175210420033,1.0,1.0
260,0.004732199702993966,0.5666,0.3318450959399343,67287.71583724022,,,0.8396144578117748,0.9111997102601981,1.0,1.0
261,0.0038131739514938087,0.5665687500000001,0.2608962222312888,67545.37540531158,,,0.8394429037898287,0.9138361266893087,1.0,1.0
262,0.004942293157364474,0.56576875,0.24219432268291713,67804.89357066154,,,0.8381399490015657,0.9123031152851306,1.0,1.0
263,0.004840142086322885,0.5656125000000001,0.27117928517982365,68066.29958081245,,,0.8394045768412575,0.9147752275340227,1.0,1.0
264,0.006070240504777757,0.5656187500000001,0.27078546956181526,68325.04710769653,,,0.8443506248619892,0.9110545609683884,1.0,1.0
265,0.026997133366967324,0.5654187500000001,0.43590259564419587,68582.82348966599,,,0.8554000324935941,0.9119330203316586,1.0,1.0
266,0.01058699496134068,0.565425,0.47218136936426164,68843.91538167,,,0.8627341285609906,0.9069034282668591,1.0,1.0
267,0.014838603158568728,0.5652312500000001,0.3831054525449872,69103.66964650154,,,0.8496819751554276,0.9068981949129276,1.0,1.0
268,0.05205505404737778,0.557225,0.4791096919526657,69363.75820636749,,,0.8347918940015728,0.880961209035682,1.0,1.0
269,0.006627922614279668,0.56754375,0.4497521809612711,69624.29137063026,,,0.8570621604274018,0.9068754186561216,1.0,1.0
270,0.0060235030374315105,0.5679687499999999,0.39437999604269863,69880.46280789375,,,0.8515536536237238,0.9077136284102889,1.0,1.0
271,0.004583627056854312,0.56814375,0.3185510069131851,70138.78166747093,,,0.8439503558565989,0.9165505109541361,1.0,1.0
272,0.00404563072588644,0.56761875,0.2629053488994638,70397.59327292442,,,0.8415628714761365,0.9038803765637726,1.0,1.0
273,0.00420221020685858,0.5671437500000001,0.22456517045696575,70657.36615180969,,,0.8384617149518612,0.9181754422588647,1.0,1.0
274,0.005246667015308048,0.56715,0.30088700105746585,70916.40926718712,,,0.8450503300935253,0.9090787608736808,1.0,1.0
275,0.0036673334223451095,0.5664750000000001,0.23521669829885164,71175.79017782211,,,0.8407646748353581,0.9223343034979259,1.0,1.0
276,0.00709225632745074,0.5657875,0.2768997938061754,71435.22517037392,,,0.8472700916786544,0.9196109785947513,1.0,1.0
277,0.00458380213167402,0.5662687500000001,0.2507809683680534,71696.1794769764,,,0.8458377503962595,0.9172042036082422,1.0,1.0
278,0.007004858415893978,0.5671875,0.3171027058114608,71956.79988121986,,,0.8516870818096912,0.9175626401108925,1.0,1.0
279,0.004938417922676308,0.566725,0.3277642918750644,72218.95629525185,,,0.8510619801760729,0.9171440896158003,1.0,1.0
280,0.02369758885397459,0.5652375,0.4015749660631021,72476.16471195221,,,0.855466108431995,0.9116162987872105,1.0,1.0
281,0.005262713111733319,0.56666875,0.35899071395397186,72735.81344842911,,,0.8525634347446962,0.91494473201638,1.0,1.0
282,0.004360651966999285,0.5667125,0.2405613658949733,72998.32177567482,,,0.8391416624833932,0.9173885949275027,1.0,1.0
283,0.004304975492414087,0.56596875,0.25654206639155747,73258.96690416336,,,0.8483441016295175,0.9161938797619303,1.0,1.0
284,0.0045350153108302035,0.566275,0.24119090363383294,73518.21850347519,,,0.8466915862297762,0.9222529397920168,1.0,1.0
285,0.0036798467772314325,0.5663499999999999,0.1933950789583226,73775.37281703949,,,0.8375185448657086,0.9158258993245314,1.0,1.0
286,0.0068191021033271685,0.5649124999999999,0.31912700136502586,74034.15100860596,,,0.8471343661590928,0.9161505663198282,1.0,1.0
287,0.006952190829179017,0.5657,0.2986438295803964,74293.9571955204,,,0.8485590583452518,0.9152498483101452,1.0,1.0
288,0.0038573787351197097,0.5657375,0.24492271486669778,74556.6584508419,,,0.8395400175639864,0.9106637653712124,1.0,1.0
289,0.003121676891169045,0.56546875,0.2168406824891766,74815.9743847847,,,0.8429528006720737,0.9143454233585874,1.0,1.0
290,0.003944688411138486,0.5650625,0.19667894020676613,75079.12399888039,,,0.8387090659692529,0.9222131463955847,1.0,1.0
291,0.005372362757771042,0.565075,0.23979711855451266,75340.68252325058,,,0.8443582901118688,0.917916326589638,1.0,1.0
292,0.0035539277494535783,0.5647875,0.2136540949344635,75601.50298929214,,,0.8448386630723025,0.9208205820559952,1.0,1.0
293,0.005517361539386912,0.5644875,0.28350580191860597,75859.80933952332,,,0.8450537013028018,0.9121111528093966,1.0,1.0
294,0.002906718853773782,0.56495625,0.1936789329474171,76120.82613539696,,,0.8423362317993682,0.9197901569922748,1.0,1.0
295,0.00443093765352387,0.5654187500000001,0.19421863742172718,76383.18057870865,,,0.8394455191138854,0.9188548406649262,1.0,1.0
296,0.013647691237929391,0.5646625000000001,0.21958363338684042,76644.50498986244,,,0.8402859675664489,0.9263547148705517,1.0,1.0
297,0.010493960908934239,0.56390625,0.30098515128095943,76903.50132632256,,,0.8411935167709459,0.9219572400467974,1.0,1.0
298,0.004807610367060988,0.56474375,0.23389684362336993,77163.39609599113,,,0.8427180898277838,0.9248296231177946,1.0,1.0
299,0.005776200509353658,0.56480625,0.2617256255820394,77422.68143033981,,,0.8422268265023259,0.9192294728205787,1.0,1.0
300,0.003115803029504605,0.5646500000000001,0.1887669819717606,77680.93501138687,,,0.8360194008997042,0.9273925561906837,1.0,1.0
301,0.0025753409139724678,0.5644374999999999,0.14998715842763582,77937.21020698547,,,0.8351407985160817,0.9158836404930275,1.0,1.0
302,0.011691194335799081,0.5639687499999999,0.1828253596400221,78193.63860869408,,,0.8389881060205269,0.9182138620216278,1.0,1.0
303,0.008134487435745541,0.5643,0.18570063741256793,78454.5274014473,,,0.8461928185172536,0.9320406732668283,1.0,1.0
304,0.003279101278894814,0.56441875,0.21091834134422244,78716.1897239685,,,0.8372160297028965,0.9280483694427752,1.0,1.0
305,0.015616209172003436,0.56213125,0.4012890547203521,78976.2034869194,,,0.8477312531268429,0.9273622887104329,1.0,1.0
306,0.006779605645351694,0.56453125,0.29409640512118734,79232.5325191021,,,0.8520255435162511,0.9221539542295702,1.0,1.0
307,0.008846682665171102,0.5637375,0.3436286277448138,79488.8060503006,,,0.853016205327443,0.9198084246206822,1.0,1.0
308,0.004024733314872719,0.56465,0.30043054847046735,79749.05242538452,,,0.8463767161718282,0.9205042711970806,1.0,1.0
309,0.00657029183312261,0.564875,0.32289982146273055,80008.1413629055,,,0.8494285913971502,0.9295854343704257,1.0,1.0
310,0.01734782614839787,0.5650999999999999,0.3300675380975008,80270.6699552536,,,0.855705409225498,0.9275610852025776,1.0,1.0
311,0.008970972327369963,0.56496875,0.30504845778147377,80532.15803647041,,,0.8454247283451701,0.9243209668136216,1.0,1.0
312,0.005923760286532343,0.5647312499999999,0.3190264070406556,80788.98196339607,,,0.8467928377061811,0.9274477497315607,1.0,1.0
313,0.0031654565700591775,0.5650375000000001,0.2582944234833121,81047.42170453072,,,0.8373465168153712,0.9189045079688696,1.0,1.0
314,0.003238833024079213,0.5653375,0.2287895730075737,81307.74357390404,,,0.8366504686467497,0.9236347232113616,1.0,1.0
315,0.002509019242279464,0.56465,0.18394780407349268,81565.83166241646,,,0.8356980669738473,0.9250166646079467,1.0,1.0
316,0.003325476512691239,0.5650499999999999,0.1720843827041487,81822.39876031876,,,0.8400273513917806,0.925055668044345,1.0,1.0
317,0.015121630724388525,0.5637875000000001,0.26415891690800586,82081.87220859528,,,0.8428289688077226,0.9380932129055981,1.0,1.0
318,0.0034462913827155712,0.5649625,0.20097436799357335,82336.126060009,,,0.83689250193132,0.9360444148847864,1.0,1.0
319,0.0023559229044622042,0.5647,0.15020822680865725,82594.29845786095,,,0.8353094116888224,0.9358027684865416,1.0,1.0
320,0.012293932254760876,0.5644812499999999,0.1887681466837724,82853.33415651321,,,0.8389791161345359,0.9379564205010054,1.0,1.0
321,0.0022607639239140553,0.56465625,0.14054478279625376,83114.697422266,,,0.8354173696958691,0.927391092434797,1.0,1.0
322,0.03889829333966191,0.56289375,0.23428521845489741,83376.94574642181,,,0.8372329569716072,0.9382714453141425,1.0,1.0
323,0.016001003479323116,0.5629625,0.3308687172209223,83633.56543040276,,,0.8438154225816017,0.9319726395377204,1.0,1.0
324,0.007245639862230746,0.56370625,0.4188031199698647,83893.0373980999,,,0.8597644359336518,0.9278469294820455,1.0,1.0
325,0.014297487262228969,0.56445,0.4848399042462309,84151.37948703766,,,0.8755792936101581,0.9256246290526635,1.0,1.0
326,0.006059800633374834,0.564775,0.4167012756690383,84407.49163413048,,,0.8537388763786081,0.9257230701122242,1.0,1.0
327,0.0034318738365982427,0.56506875,0.2709957376122475,84669.43002605438,,,0.8441486389019984,0.9198240523172444,1.0,1.0
328,0.0034812283432984256,0.56506875,0.23922738442197441,84929.94321298599,,,0.8374311026124381,0.925414317058123,1.0,1.0
329,0.003456132368228282,0.5652375000000001,0.21606622984011967,85192.61490678787,,,0.8365566130056583,0.9256903312231113,1.0,1.0
330,0.0025774124835152177,0.56495625,0.17209978544463714,85456.39115476608,,,0.8355020832920641,0.9288424692251738,1.0,1.0
331,0.003343960944403079,0.5651375,0.22722936058416962,85714.94656705856,,,0.8372877866211863,0.9413599805536557,1.0,1.0
332,0.0024300183653394925,0.56496875,0.16961848599215348,85977.35217833519,,,0.8357759459963181,0.9317319034350866,1.0,1.0
333,0.003430709564781864,0.5645374999999999,0.17293737487246594,86239.10998630524,,,0.8361463620753381,0.9374285512500361,1.0,1.0
334,0.0023008704109088287,0.56455625,0.1336170855599145,86500.94508838654,,,0.8353812961202969,0.9424381563989372,1.0,1.0
335,0.007324566783427144,0.56429375,0.1760016186783711,86759.70951771736,,,0.8396578084875319,0.9313085426681226,1.0,1.0
336,0.004202368403275614,0.5644374999999999,0.20419291981185475,87019.5709631443,,,0.8427069828869292,0.9335993200237975,1.0,1.0
337,0.00218278324646235,0.56466875,0.16873986485103767,87280.55050349236,,,0.8355929740683357,0.9354793910638728,1.0,1.0
338,0.03268500883787055,0.5596125000000001,0.3120587148393194,87539.23939108849,,,0.838860042723045,0.91865548906839,1.0,1.0
339,0.004379932743904647,0.5642874999999999,0.42359243069464964,87798.84226942062,,,0.8505887846223453,0.93051661459734,1.0,1.0
340,0.0074990887656895214,0.56474375,0.30765189457063874,88054.11324596405,,,0.844656073207238,0.9206069478258221,1.0,1.0
341,0.002369594804622466,0.56488125,0.17484250850975513,88314.99760532379,,,0.836339290484486,0.9192143178678955,1.0,1.0
342,0.0026679948634409814,0.56455625,0.1805839856620878,88572.80954408646,,,0.8361456963900906,0.934010757209845,1.0,1.0
343,0.0021378395507781534,0.56433125,0.14641754869371654,88832.97151041031,,,0.8353657583507339,0.9313924800777337,1.0,1.0
344,0.0026438499560754282,0.5641125,0.14851763794819514,89094.29142260551,,,0.8397616337331927,0.9281636629139909,1.0,1.0
345,0.010700322914635763,0.5635125,0.2337366142310202,89353.39979052544,,,0.8417118607446477,0.9239265565194256,1.0,1.0
346,0.0035017223377508343,0.5640125,0.15411681917806466,89614.25774550438,,,0.8380774781050387,0.9288683514282619,1.0,1.0
347,0.0032845785721292487,0.5637875000000001,0.1608322240722676,89876.88605046272,,,0.8377563049637994,0.9349143037721096,1.0,1.0
348,0.001970596332103014,0.56381875,0.1378030858002603,90140.15196418762,,,0.8347908165344133,0.9320932662800896,1.0,1.0
349,0.002395249701294233,0.5641,0.1470130099914968,90401.33997774124,,,0.8352379547810717,0.9278948929663917,1.0,1.0
350,0.05649419252258667,0.55146875,0.43427819243321814,90663.6568775177,,,0.8319056642780902,0.8978072774152486,1.0,1.0
351,0.01222259575406497,0.5624437499999999,0.5666175215194623,90923.5710465908,,,0.8832323499911469,0.9259171953805934,1.0,1.0
352,0.008224823015552829,0.56479375,0.4318070785452922,91185.34555530548,,,0.8524136518519903,0.9392081335940415,1.0,1.0
353,0.002639324597112136,0.5656125000000001,0.2619449035574993,91443.55336499214,,,0.8379877425085004,0.9161830013298641,1.0,1.0
354,0.0031972741206118373,0.5647375,0.20067053424815337,91703.35309457779,,,0.8406691778104366,0.9310872712350409,1.0,1.0
355,0.002317801861136104,0.5642750000000001,0.14560115076601504,91960.41930651665,,,0.8351388293207607,0.9339758516183485,1.0,1.0
356,0.0026266544231475565,0.5641,0.1552699233405292,92221.76403427124,,,0.8352826428489656,0.9340771161694696,1.0,1.0
357,0.0021517013366974423,0.5640937500000001,0.13738421363135178,92483.89115691185,,,0.8345894133280733,0.9353924504144433,1.0,1.0
358,0.03208257575970492,0.5632125,0.215292615412424,92745.1792473793,,,0.8330679758737528,0.9388999758368919,1.0,1.0
359,0.002722733467453509,0.5639562499999999,0.22216187100857496,93008.46342015266,,,0.8399033030090389,0.9397517096124146,1.0,1.0
360,0.0020683506783825576,0.56393125,0.13406802425161005,93269.94607806206,,,0.8355137829424457,0.9253082771019674,1.0,1.0
361,0.0029559674429037843,0.5639562499999999,0.14181629419326783,93527.92755246162,,,0.8447985559059893,0.9258289226135454,1.0,1.0
362,0.001953349342511501,0.5639624999999999,0.12001376282423734,93790.08010101318,,,0.8348800379726483,0.9274487784996389,1.0,1.0
363,0.013166295235714644,0.5636249999999999,0.14345466246207556,94049.53128099442,,,0.8387864378842331,0.9410500612089006,1.0,1.0
364,0.04447151411259256,0.5614875,0.39406872087468703,94305.32129645348,,,0.8351996516061915,0.9435909214408117,1.0,1.0
365,0.0029159360954508886,0.56400625,0.2953285207040608,94566.83446478844,,,0.8370245689334868,0.9360052132946493,1.0,1.0
366,0.001989101322760689,0.56401875,0.18572724231829246,94824.75522756577,,,0.8343866937268508,0.9212875812324004,1.0,1.0
367,0.004760960836574668,0.56421875,0.2017784716716657,95084.37604522705,,,0.8416885646663653,0.9331730613224578,1.0,1.0
368,0.0018566471571830334,0.56410625,0.13781773999022942,95344.23635530472,,,0.8341585242336171,0.9351085379575228,1.0,1.0
369,0.003162900233292021,0.5641437499999999,0.13813002790945272,95600.79782390594,,,0.8424988104981502,0.9222207365082424,1.0,1.0
370,0.009367701445080454,0.56375,0.1682282621661822,95855.31453800201,,,0.8387445713926238,0.9437446839023336,1.0,1.0
371,0.0024424205919785892,0.5636625,0.17841955131540696,96112.14242911339,,,0.8351328070874924,0.9355727917644874,1.0,1.0
372,0.002223453022816102,0.56384375,0.14397179611648123,96373.24999046326,,,0.8350193352706821,0.937592762775302,1.0,1.0
373,0.0017219755700352835,0.56385625,0.11929429046188791,96633.19293141365,,,0.8337513582599627,0.9376547826891398,1.0,1.0
374,0.003927246238163207,0.5636937500000001,0.1444782695112129,96892.02597141266,,,0.8404582879792482,0.9271342212705698,1.0,1.0
375,0.0016601118732069153,0.5637375,0.11980278007686138,97154.70150136948,,,0.8334747756363912,0.9293468681812245,1.0,1.0
376,0.003911796344618778,0.56375625,0.14223959936449926,97416.6103875637,,,0.8411694168565614,0.9286382163097568,1.0,1.0
377,0.009138526523747715,0.5633250000000001,0.20974232697238523,97678.65718841553,,,0.8385283383505473,0.9325625160856253,1.0,1.0
378,0.008858117747513461,0.56301875,0.25718931714072824,97937.12507772446,,,0.8496767036427699,0.9227478334840364,1.0,1.0
379,0.0016951117449934827,0.5639000000000001,0.13592198519036175,98198.28578519821,,,0.8349656115244726,0.9186807529839001,1.0,1.0
380,0.0032142768861376683,0.56374375,0.13386769248172642,98459.56659603119,,,0.8406052224866989,0.9266955174580664,1.0,1.0
381,0.001623955568720703,0.56364375,0.10326503744969766,98721.42989015579,,,0.8337176578808521,0.9283007407632455,1.0,1.0
382,0.009541686100055813,0.56361875,0.1421278000343591,98979.75706124306,,,0.8385439177663073,0.9305080759067689,1.0,1.0
383,0.0015712769214587753,0.563525,0.11364603492741783,99240.83867406845,,,0.8334327777470194,0.9363824097549759,1.0,1.0
384,0.006853727968700696,0.5635625,0.11479466312254469,99501.51967525482,,,0.8382449838415831,0.9251519683907755,1.0,1.0
385,0.0044912750770890845,0.5636937500000001,0.12264215952406327,99763.41602253914,,,0.8390196779374643,0.9343526046159283,1.0,1.0
386,0.0014924969262210652,0.56343125,0.09806904528910915,100023.95883965492,,,0.8332934504446562,0.9219655592984766,1.0,1.0
387,0.004823744630994042,0.5632250000000001,0.1352855040691793,100283.24005246162,,,0.8377477719394593,0.9247170918151979,1.0,1.0
388,0.002039637916095671,0.5630875,0.10983832255005836,100543.37459111214,,,0.8384651290462679,0.9259168875768455,1.0,1.0
389,0.002731891846633516,0.56338125,0.12406075016284983,100801.13431668282,,,0.8377302576301937,0.9345339871200244,1.0,1.0
390,0.0014343724262289468,0.56309375,0.10935711339116097,101061.36676287651,,,0.8330799381322073,0.9190191412444355,1.0,1.0
391,0.0014006972145580222,0.563125,0.10184968244284391,101320.0159535408,,,0.832673705783646,0.9286799495492992,1.0,1.0
392,0.007420586189982714,0.5632312500000001,0.13067319039255382,101581.61657333374,,,0.8386967346081913,0.9159281038299454,1.0,1.0
393,0.010423557466128842,0.562975,0.15402040272019804,101839.84925293922,,,0.8370815745383641,0.9045755586769895,1.0,1.0
394,0.006716454296110896,0.5621125,0.2106006156032284,102097.5307776928,,,0.8384243125888847,0.9201641683535404,1.0,1.0
395,0.008265301011670091,0.5630437500000001,0.2647976312165459,102355.90820336342,,,0.8467334375523048,0.9184857778267227,1.0,1.0
396,0.010696428605660913,0.5624687500000001,0.27956543465455375,102614.56555867195,,,0.8400411200742146,0.9293237582336529,1.0,1.0
397,0.02278270565875573,0.56168125,0.5228310426697135,102874.99702358246,,,0.8599619332217349,0.9406322501330768,1.0,1.0
398,0.0920374931065453,0.5540812500000001,0.7208650390307109,103132.42461037636,,,0.8652511275250144,0.8823373204302022,1.0,1.0
399,0.007786080655932892,0.5642812500000001,0.6396140002955993,103393.36544322968,,,0.866117550272181,0.9365066489461731,1.0,1.0
400,0.003322389295499306,0.5666375,0.3308729886387785,103655.76393651962,,,0.8490476454262087,0.9409599355900917,1.0,1.0
401,0.002479419750670786,0.56616875,0.19992947423209748,103917.34725999832,,,0.8370928745509932,0.925170982499866,1.0,1.0
402,0.0023117654232919452,0.5652874999999999,0.15866888652866085,104177.30633616447,,,0.835132443714588,0.9289325299565394,1.0,1.0
403,0.0027486029604915528,0.565325,0.15361702240382633,104439.79946494102,,,0.8353290256818373,0.9263721432107759,1.0,1.0
404,0.002083955823036376,0.56445,0.13351982664316892,104699.20748019218,,,0.8344382894232899,0.9435273179994241,1.0,1.0
405,0.0024121007216308496,0.5647,0.12185001218070586,104958.56944775581,,,0.8347103951743612,0.9236470954216005,1.0,1.0
406,0.020829544891603293,0.5606187499999999,0.2969619017404815,105217.7287364006,,,0.8365370299054193,0.9235286993008366,1.0,1.0
407,0.0029761063331534385,0.5647562500000001,0.27000275046254196,105476.51369404793,,,0.8382639147100645,0.9415373027288803,1.0,1.0
408,0.00200582702527754,0.565025,0.16752366670407354,105739.14096689224,,,0.8354192421431293,0.9341150984312118,1.0,1.0
409,0.005577356218418572,0.56496875,0.16100235103319088,106000.6713449955,,,0.8418770971094104,0.936879583297082,1.0,1.0
410,0.0018427051239996218,0.56473125,0.12628719399993618,106263.62467432022,,,0.8342232330464792,0.9361430794870087,1.0,1.0
411,0.0027391308056394334,0.564425,0.13692385672281185,106528.90270662308,,,0.8424784312827638,0.9423346481820531,1.0,1.0
412,0.0017367277847370132,0.5645562500000001,0.11815909606715043,106790.43567681313,,,0.8339957023599618,0.9302579929595735,1.0,1.0
413,0.001681312802611501,0.56445625,0.10567514182378848,107050.07427096367,,,0.833870260559663,0.9336441707286561,1.0,1.0
414,0.00298583320909529,0.56418125,0.13139650855834287,107309.90143036842,,,0.8430605223822982,0.9303065542395064,1.0,1.0
415,0.0016173674026504158,0.5641,0.10825121238206824,107571.21766901016,,,0.8339807216531223,0.9368166520778471,1.0,1.0
416,0.0015710406511061591,0.564125,0.10778716724986831,107830.76479125023,,,0.833733350258036,0.9250000392669846,1.0,1.0
417,0.012655164597163093,0.56278125,0.21955363652668894,108091.24219632149,,,0.8450725929084553,0.9519390140247286,1.0,1.0
418,0.0015959937369188991,0.56363125,0.12066345953692993,108351.70986032486,,,0.8345830500880548,0.924546222361696,1.0,1.0
419,0.0015377673731563845,0.563875,0.0978407111018896,108608.25339150429,,,0.8341373023287224,0.916078202964309,1.0,1.0
420,0.0014967143571993802,0.5640937500000001,0.09398854930574695,108866.70156669617,,,0.8337802290176146,0.9351516001579467,1.0,1.0
421,0.0054015849822462774,0.5641125,0.22408930292973916,109128.06473660469,,,0.8383506617272307,0.9136952183963423,1.0,1.0
422,0.013818435201574174,0.56299375,0.23565248836142322,109388.10230278969,,,0.8469697208256732,0.9112169445806371,1.0,1.0
423,0.0015280587038432713,0.56364375,0.1396411411774655,109644.47719073296,,,0.8342807221263866,0.9191960262628256,1.0,1.0
424,0.002905839739651128,0.5636749999999999,0.13261066606889169,109902.42447090149,,,0.8403024870709923,0.927587768144837,1.0,1.0
425,0.001461679633030144,0.5637749999999999,0.09907502772596975,110165.6918900013,,,0.8333129263312533,0.9096771563091102,1.0,1.0
426,0.0014303875392215558,0.5637062500000001,0.10254866449783245,110429.02675390244,,,0.8331015899465971,0.9114900878168966,1.0,1.0
427,0.0013943878298960045,0.56336875,0.09939838574888805,110683.80198550224,,,0.8332457318157318,0.9262153164928597,1.0,1.0
428,0.0013631490963234682,0.5634937499999999,0.09879203115900358,110943.73233604431,,,0.8328995251296537,0.9130428592488149,1.0,1.0
429,0.003999437102356751,0.56353125,0.11657516394431393,111204.52756261826,,,0.8388600021752457,0.9206156881146625,1.0,1.0
430,0.0013295724385898211,0.56343125,0.09121462508725624,111464.09419441223,,,0.8331519083400709,0.9212343722332662,1.0,1.0
431,0.011052077612657741,0.5631875,0.12521917863438528,111721.13739967346,,,0.8393831965368135,0.8986188958142161,1.0,1.0
432,0.0013038091743510448,0.56324375,0.09375600361575682,111980.36368083954,,,0.8329881410248476,0.9141515084739857,1.0,1.0
433,0.001282700986121199,0.5633625,0.0757346502194802,112237.5762515068,,,0.832905094300444,0.9185932778238713,1.0,1.0
434,0.0012640761808142998,0.56308125,0.08560523603421946,112494.33340001106,,,0.8326335426268912,0.9134862147862945,1.0,1.0
435,0.00382631233696884,0.563,0.12154697282239794,112754.61417150497,,,0.8368816834982301,0.9173257468114251,1.0,1.0
436,0.001236495914236002,0.56310625,0.08754422987500826,113015.8790807724,,,0.8329351406055463,0.8917101626768126,1.0,1.0
437,0.0012139695361838676,0.5629125,0.08981245265652736,113277.83395195007,,,0.8327403917978631,0.8918889358236505,1.0,1.0
438,0.006878523859631969,0.56254375,0.12510044863447548,113540.57082533836,,,0.8383963265396069,0.9107412090325093,1.0,1.0
439,0.001189104993318324,0.56296875,0.08405209678846101,113800.6513056755,,,0.8329589387684546,0.8943794546624142,1.0,1.0
440,0.01883328928561241,0.5615125,0.13950504953972995,114060.64060330391,,,0.8351365214001563,0.9132828778337538,1.0,1.0
441,0.001836699709383538,0.56260625,0.11614903951995074,114317.61478447914,,,0.8337377279496714,0.9053025474726133,1.0,1.0
442,0.0011651093718683114,0.5623874999999999,0.07954003688258429,114580.34418034554,,,0.8328188068608653,0.9218515714686752,1.0,1.0
443,0.002257957918664033,0.56238125,0.10032079781716069,114842.02965259552,,,0.8333257849523812,0.9129113463269224,1.0,1.0
444,0.0011399550479836763,0.5624312499999999,0.0797401717863977,115106.3264465332,,,0.8327901265517693,0.8922074264572049,1.0,1.0
445,0.0030124887269266766,0.5626625000000001,0.10833777811688682,115370.589345932,,,0.837449133481809,0.8865254125278288,1.0,1.0
446,0.0011224781492273905,0.56260625,0.07832381416422625,115631.76334190369,,,0.8326588954528275,0.89260794823688,1.0,1.0
447,0.0011142337307319394,0.562475,0.0778928224928677,115887.96640706062,,,0.8326812793606135,0.8952660244804105,1.0,1.0
448,0.0010905547580478015,0.5623375,0.0780620191556712,116151.64973115921,,,0.8323289427111596,0.8872643369632307,1.0,1.0
449,0.0010737107111708612,0.562475,0.07390570834589501,116409.83615040779,,,0.8323146305132532,0.8747599256011018,1.0,1.0
450,0.003033700419473462,0.562425,0.10987458185603222,116674.66778182983,,,0.8392479068177358,0.9059836068423266,1.0,1.0
451,0.001056044401229883,0.562225,0.07515362769675751,116934.60596418381,,,0.8327019100964443,0.8665058229927891,1.0,1.0
452,0.00667734955150081,0.5620375,0.10504794841787467,117194.99018836021,,,0.837697233684886,0.8875117348058095,1.0,1.0
453,0.0010453132990733138,0.56201875,0.07848585446675618,117454.02064442635,,,0.8324252895869704,0.8848372909137421,1.0,1.0
454,0.006949733514011314,0.5623625,0.1115821907762438,117715.40761208534,,,0.837644364712609,0.9060192779881272,1.0,1.0
455,0.0010261760653520469,0.56203125,0.06922848912266394,117972.33073425293,,,0.8327510639875018,0.8901046414480069,1.0,1.0
456,0.004209953035751824,0.56244375,0.10428421342124541,118228.83601117134,,,0.8391004497489197,0.8945847755093608,1.0,1.0
457,0.0010209836487774738,0.5623625,0.08164382303754489,118488.70135307312,,,0.832441702662722,0.8855001299978762,1.0,1.0
458,0.0009982353811210487,0.5623125,0.07734509630439182,118751.98165154457,,,0.8322860042650431,0.868718790204354,1.0,1.0
459,0.006601946096088796,0.5620499999999999,0.11130114916401605,119012.61367797852,,,0.8371251906207603,0.873283892704364,1.0,1.0
460,0.0009904028273012954,0.56233125,0.07046756238366167,119274.50534701347,,,0.8322784830760921,0.8864711748456393,1.0,1.0
461,0.04925060659497831,0.55925625,0.2919326796196401,119536.10663890839,,,0.8261821445571873,0.8950286940779788,1.0,1.0
462,0.11930349810863847,0.5514187500000001,0.829684789168338,119801.19102835655,,,0.8316460326814739,0.8545251369406593,1.0,1.0
463,0.10145116230669375,0.5495812499999999,0.906663787116607,120058.71232962608,,,0.8759965681171826,0.896184488289403,1.0,1.0
464,0.006456216946025961,0.56203125,0.6916601929813624,120319.23567891121,,,0.8638463547268017,0.9363797559725068,1.0,1.0
465,0.002453664665517863,0.5642,0.3392214880014459,120577.69085478783,,,0.8387390337404339,0.9417169071745425,1.0,1.0
466,0.002228895263397135,0.563925,0.19974998862793047,120836.45638895035,,,0.8345544202030792,0.9326979988206159,1.0,1.0
467,0.0023798979997081914,0.563625,0.1936231500779589,121097.88551950455,,,0.8339758385948596,0.942665012277488,1.0,1.0
468,0.0019082068443822208,0.5630437500000001,0.13861443006123106,121356.01984214783,,,0.8327949037956337,0.9331791702833877,1.0,1.0
469,0.009749750282571768,0.5634874999999999,0.2595821492994825,121619.81552791595,,,0.838820713319149,0.9461445601243078,1.0,1.0
470,0.006214466307574185,0.5627,0.27188256550580264,121881.14985895157,,,0.8500565288002366,0.9359399207005866,1.0,1.0
471,0.011809257473578328,0.56184375,0.2727612954253952,122139.53496718407,,,0.8453335150922549,0.9061324414575936,1.0,1.0
472,0.0027081989581347445,0.5639000000000001,0.24812119078511993,122403.11523413658,,,0.8362894971876341,0.9293853107993155,1.0,1.0
473,0.0018546553146734368,0.56423125,0.1711588017642498,122659.48581910133,,,0.8336993862827389,0.9204621642348157,1.0,1.0
474,0.0017474863390816607,0.56374375,0.12888388916229207,122920.67467665672,,,0.8326780070778206,0.9084993637388818,1.0,1.0
475,0.0019470815659587972,0.56328125,0.13881409990911683,123182.79540729523,,,0.833264183537144,0.921435607264016,1.0,1.0
476,0.0016055304524343226,0.5633625,0.11135240147511165,123446.18062448502,,,0.8325207265767395,0.9120997736493744,1.0,1.0
477,0.0015450139093445615,0.5630499999999999,0.10723049445077777,123708.89446878433,,,0.8321640538391009,0.9041117929104421,1.0,1.0
478,0.001499383652480901,0.5629000000000001,0.09168444266542793,123968.56433844566,,,0.8319737993853376,0.9103997904661221,1.0,1.0
479,0.0014564574068572256,0.56295625,0.09670974472537637,124230.60283851624,,,0.8320737180339055,0.9111706386943864,1.0,1.0
480,0.0017554865293277543,0.5632375000000001,0.0996787026990205,124490.08152294159,,,0.8331828063942135,0.8932478848802103,1.0,1.0
481,0.001388246017995698,0.5627187499999999,0.0873150727711618,124750.53619527817,,,0.8323395103385989,0.9032762004839106,1.0,1.0
482,0.001356625376502052,0.563075,0.08073871413556238,125014.21957802773,,,0.8321192821972259,0.9037275987496275,1.0,1.0
483,0.0048132970881852085,0.56283125,0.12061058180406689,125274.08707904816,,,0.8373519363501627,0.9383871600320721,1.0,1.0
484,0.0013047592003204045,0.5627875,0.1004577822983265,125535.27451586723,,,0.8325626002128595,0.8974731729026768,1.0,1.0
485,0.0012723293279123026,0.5631937499999999,0.08767681166840097,125790.44246387482,,,0.8321392684156994,0.8975201254590262,1.0,1.0
486,0.0012473091977881269,0.563125,0.08982643873120348,126054.27155423164,,,0.8320921309000765,0.8786511414412035,1.0,1.0
487,0.0012175244066384037,0.56320625,0.09559912333885828,126311.36308932304,,,0.8320846406949073,0.8793803968496889,1.0,1.0
488,0.0011904251257874423,0.56299375,0.08311008460198839,126571.5220053196,,,0.8318849003506916,0.8873555898694864,1.0,1.0
489,0.0011745738307581632,0.5628249999999999,0.07629259979973237,126828.5216152668,,,0.8319021249993084,0.9074811966853658,1.0,1.0
490,0.0044182812151120745,0.5630312500000001,0.09696738718387982,127088.31579995155,,,0.83907953056621,0.8978509069715416,1.0,1.0
491,0.0011532619513673127,0.56303125,0.08073347304016351,127348.08887243271,,,0.8320388165366226,0.8868626573273993,1.0,1.0
492,0.0011303257391773514,0.56288125,0.07626330985998114,127604.41344380379,,,0.8319644891908832,0.8891932883752146,1.0,1.0
493,0.004772488096023153,0.562975,0.11509664836339653,127864.67637729645,,,0.8387823757688191,0.8902995113627191,1.0,1.0
494,0.0011082618020736845,0.5627875,0.07000865495453278,128127.99358558655,,,0.8323035455177966,0.8887382667195858,1.0,1.0
495,0.004522981394802627,0.563,0.10475900233723223,128391.41747164726,,,0.8379236234214866,0.8886751908451096,1.0,1.0
496,0.0010913714588241421,0.56311875,0.08029642573868236,128652.84659171104,,,0.8319888828686555,0.8807249222595658,1.0,1.0
497,0.0010685951228879276,0.5630625,0.07268135670262078,128914.06810593605,,,0.8317023781228776,0.8816402422560552,1.0,1.0
498,0.0010499547151994193,0.56295,0.06923346545857688,129175.2839050293,,,0.8316328551007011,0.8791087117649339,1.0,1.0
499,0.0010413615087600191,0.5627312499999999,0.07104831747710705,129434.352247715,,,0.8316976276827797,0.8580452404411788,1.0,1.0
500,0.0010275766071572434,0.5626125,0.0848744499652336,129693.66887831688,,,0.8316650804213974,0.8732327949223864,1.0,1.0
