iter,loss,accuracy,convergence_score,time,epsilon,best_alpha,auc_attack_before,auc_attack_after,max_norm,noise_multiplier
5,2.0644309453666208,0.24291875,6.739455624421438,3409.8475873470306,0.3572287347526937,31.0,0.5232226288688158,0.5222369013005627,4.0,10.0
10,1.9922512248158455,0.29541875,6.7508779486020405,6277.854621887207,0.5235602095667183,23.0,0.527292321948678,0.5249144129370046,4.0,10.0
15,1.9591131284832954,0.32205,6.7441477636496225,9136.12204837799,0.6550166189590789,19.0,0.5261540792658215,0.5238515757753686,4.0,10.0
20,1.9131894402205947,0.35805624999999996,6.718568521738052,11984.875308513641,0.7681691168589213,17.0,0.5246951272783371,0.5229987328149626,4.0,10.0
25,1.878575924411416,0.37976875,6.73447501262029,14808.215137958527,0.869508262559036,15.0,0.5292235489417295,0.519876434251578,4.0,10.0
30,1.8498751025646925,0.39656875,6.756104731559754,17604.431881189346,0.9620567606572388,14.0,0.5249103415756371,0.5195497998688664,4.0,10.0
35,1.8494178421795366,0.410225,6.724240855375926,20414.793159723282,1.048367084511379,13.0,0.5258016231591579,0.5251397868818279,4.0,10.0
40,1.847828644514084,0.42725,6.735548824071884,23215.243027687073,1.1302992708241562,12.0,0.5264285314066189,0.5259895881252076,4.0,10.0
45,1.8441021461039782,0.4311875,6.71909931898117,25965.1099486351,1.2060377185941955,12.0,0.5245319518994443,0.5275090860521956,4.0,10.0
50,1.843815891072154,0.4453875,6.713332843780518,28703.987944364548,1.2804128829467802,10.9,0.5257989570521037,0.525824064487701,4.0,10.0
55,1.8663543909788132,0.45089375,6.713790859778722,31353.194180488586,1.349172150382822,10.9,0.5279966777457119,0.5238398713512677,4.0,10.0
60,1.8437564618885518,0.45533749999999995,6.7241585612297055,34062.97506737709,1.4165915317199411,10.5,0.5259774509928925,0.5241491894489839,4.0,10.0
65,1.8528160262852906,0.46351875,6.727720594406128,36752.319702625275,1.481685554645171,10.1,0.5298056129410625,0.5258772190318535,4.0,10.0
70,1.8189388934522868,0.46735625000000003,6.728546345233918,39443.68087863922,1.5446622583382217,9.8,0.526811639254007,0.5224683471368818,4.0,10.0
75,1.8180294904857874,0.47714375,6.719729785124461,42129.57185268402,1.6057836812502508,9.6,0.5273522297024205,0.5250229388072134,4.0,10.0
80,1.8404163144528864,0.47771875,6.710653815666834,44835.598952293396,1.665179559818359,9.3,0.5267595634693166,0.5280958195700152,4.0,10.0
85,1.8529716841876507,0.4813,6.714881646633148,47510.483132600784,1.7230733003956018,9.1,0.5269463905055025,0.52748931562968,4.0,10.0
90,1.8237704671919346,0.48749375,6.712275288502375,50187.60182905197,1.7795608317100504,8.9,0.5270602042778681,0.5264109988476461,4.0,10.0
95,1.8423520796000958,0.48775625,6.7366154313087465,52881.68999958038,1.8347337052966977,8.7,0.5290693269286874,0.5276978088492374,4.0,10.0
100,1.8123747665435075,0.4936125,6.725171341498693,55597.006541490555,1.888693420539648,8.5,0.5292503150514527,0.5286064138023876,4.0,10.0
105,1.8309655003249645,0.49739375,6.7193105320135755,58284.2318778038,1.9415528147143648,8.3,0.5281490585004428,0.5272923787243021,4.0,10.0
110,1.8237538121640682,0.50325625,6.723818743228913,60985.43319272995,1.993437691724504,8.1,0.5278943160154743,0.5282039700054595,4.0,10.0
115,1.8299999937415121,0.5011187500000001,6.736626744270325,63671.7339322567,2.0442555563135363,8.0,0.5283334516169738,0.5299457200902736,4.0,10.0
120,1.8375804629176855,0.50405625,6.720742479960124,66389.93848204613,2.094251498174505,7.9,0.5289215835186778,0.5277626080179763,4.0,10.0
125,1.8392692174762488,0.50448125,6.7297690172990166,69115.9259827137,2.1433620672939186,7.7,0.5283509629383212,0.52748518400422,4.0,10.0
130,1.8419521708041429,0.5088375,6.727894391616186,71874.4700858593,2.1916516728013913,7.6,0.5295256829526762,0.5281098966530784,4.0,10.0
135,1.8447486143559217,0.5126999999999999,6.7184885203838345,74624.73735332489,2.2392085955848913,7.5,0.5308095610139201,0.5286980649279472,4.0,10.0
140,1.8449833601713181,0.5143374999999999,6.713615922133128,77381.30221557617,2.2860587615417485,7.4,0.5292466521319801,0.5280756644718095,4.0,10.0
145,1.8325441472232342,0.5152812499999999,6.728808347384135,80138.03553652763,2.3322297714027003,7.3,0.5282050442690104,0.5298173199832782,4.0,10.0
150,1.8551571480929852,0.51848125,6.73836909532547,82875.24424648285,2.377751038279489,7.2,0.5289725957833578,0.5275784271324631,4.0,10.0
155,1.8571213345974684,0.520325,6.734599846601486,85582.15269708633,2.422653938900403,7.1,0.5302407769906421,0.5289872745399857,4.0,10.0
160,1.8558702684938908,0.52626875,6.731289766232172,88246.96133732796,2.4669719802000736,7.0,0.5288779015989324,0.5264306612726452,4.0,10.0
165,1.8384707026183604,0.52633125,6.733828471104304,90925.06275582314,2.510740983009487,6.9,0.5306257295788823,0.5271276514975204,4.0,10.0
170,1.8536255683749914,0.5254,6.717243003845215,93579.58724546432,2.55399928513496,6.8,0.5317650142806797,0.5322818930774312,4.0,10.0
175,1.8384629245847464,0.5217624999999999,6.718723541498184,96300.70949673653,2.596787966064259,6.7,0.5276728684196833,0.5276412680169782,4.0,10.0
180,1.8513059657067061,0.52228125,6.739034712314606,98999.19451141357,2.6389674861888635,6.7,0.5278679220148312,0.5262178439602607,4.0,10.0
185,1.8210922986268998,0.52514375,6.720360813538234,101696.54186701775,2.680699074659324,6.6,0.5300551977309217,0.5296169459149405,4.0,10.0
190,1.8640024479478599,0.5244249999999999,6.717729236682256,104398.06968617439,2.7220525103831803,6.5,0.5320036868512834,0.5263542602434906,4.0,10.0
195,1.8543863449245692,0.52530625,6.72669060031573,107138.27125477791,2.762969008362512,6.5,0.5288894236340718,0.5289027221152608,4.0,10.0
200,1.8691160641610622,0.52600625,6.722738607724508,109858.34818029404,2.803363784039909,6.4,0.5281838778021364,0.52861427039533,4.0,10.0
205,1.864232589676976,0.5267999999999999,6.742403817176819,112599.02166771889,2.843486211139938,6.3,0.5289087019416314,0.5292326805837034,4.0,10.0
210,1.879815274104476,0.5268625,6.739204353094101,115389.3963007927,2.8831399299089746,6.3,0.5307586096830804,0.531448080616518,4.0,10.0
215,1.9020697075873612,0.5265312500000001,6.726346417268117,118235.13923025131,2.922417842127976,6.2,0.5289273496483162,0.5287664372575336,4.0,10.0
220,1.891820561885834,0.5266312499999999,6.7339239875475565,121093.98790574074,2.9614402623638942,6.2,0.5308196201883619,0.5315230048418363,4.0,10.0
225,1.8892098125070333,0.52429375,6.732217236359914,123994.93966507912,2.999937643431321,6.1,0.52973614793638,0.5316435922653018,4.0,10.0
230,1.8641581751406193,0.52745625,6.712090327342351,126906.25216722488,3.0383288258325964,6.1,0.5319929962197774,0.5314129455076854,4.0,10.0
235,1.8723166011273862,0.52485625,6.73335701028506,129844.56955003738,3.076114870717753,6.0,0.5331582817080756,0.5308590984272177,4.0,10.0
240,1.8959202717989683,0.5269999999999999,6.717924131949743,132778.20957899094,3.113874875972265,6.0,0.5318913056076647,0.5300857214903428,4.0,10.0
245,1.8759421035647392,0.526375,6.720199728012085,135763.10738110542,3.1510245313540306,5.9,0.5339776126761346,0.5318701605754756,4.0,10.0
250,1.8478594470769165,0.531725,6.726908163229624,138730.74098443985,3.1881534201377297,5.9,0.530288421449495,0.529947057365286,4.0,10.0
255,1.8748603217303752,0.527925,6.7314646204312645,141664.77978730202,3.2247479935450976,5.8,0.533164589447837,0.5339548564347837,4.0,10.0
260,1.888593904301524,0.52658125,6.7363254507382715,144562.01482748985,3.2612458265224573,5.8,0.5302223471908757,0.5283155784508266,4.0,10.0
265,1.8672502920031548,0.5305875,6.732122904062271,147402.03058719635,3.297373674123603,5.7,0.533549986848251,0.5319734942653305,4.0,10.0
270,1.8930383015424013,0.53076875,6.735169041156769,150218.7845211029,3.333240511947892,5.7,0.5309477412414927,0.5316554815000566,4.0,10.0
275,1.8889506105333567,0.532275,6.71962846716245,153020.4784219265,3.3689978170967176,5.6,0.5328535251350037,0.530167523319985,4.0,10.0
280,1.8922270197421311,0.53374375,6.736447642246882,155769.61440587044,3.40423372040874,5.6,0.5307649842370207,0.5337044260590512,4.0,10.0
285,1.9109016403555872,0.5351312500000001,6.727796324094137,158535.3435227871,3.4394696237207625,5.6,0.5346040026062496,0.5318628480239211,4.0,10.0
290,1.8981134671717883,0.53286875,6.726740135749181,161274.19690918922,3.474330406976792,5.5,0.534792508832842,0.53242295709981,4.0,10.0
295,1.898961431533098,0.529175,6.716154571374258,163998.39006590843,3.5089354364068206,5.5,0.5316133855648522,0.5311309411395819,4.0,10.0
300,1.8683579027652741,0.5332749999999999,6.720149578650792,166772.78869628906,3.5435404658368492,5.5,0.5327866531264617,0.5334919376815319,4.0,10.0
305,1.861369013786316,0.5323375,6.737564245859782,169508.7872107029,3.5776194594820474,5.4,0.5345961001954058,0.5355357595084809,4.0,10.0
310,1.8708453554660083,0.5349937499999999,6.722562805811564,172279.8396794796,3.611593675648059,5.4,0.53516727857406,0.5330017628690098,4.0,10.0
315,1.8643630515784027,0.53125,6.7308405260245,175041.10569620132,3.645567891814071,5.4,0.5331740375378407,0.5329271732517398,4.0,10.0
320,1.8706295900046825,0.5244187499999999,6.712928958733877,177826.25114178658,3.6789906926292604,5.3,0.532443008285026,0.5333995650590775,4.0,10.0
325,1.88844191133976,0.52838125,6.731312112013499,180682.84076595306,3.7123341561382706,5.3,0.5321998564866134,0.532583727255368,4.0,10.0
330,1.862866412103176,0.53051875,6.707409479220709,183588.2507660389,3.74567761964728,5.3,0.5345074813834232,0.534044001143134,4.0,10.0
335,1.8981675155460835,0.5290874999999999,6.7205914179484045,186520.52717137337,3.778582002462638,5.2,0.5345275282625348,0.5354364124346209,4.0,10.0
340,1.88717640042305,0.5281875,6.71106010278066,189479.76346039772,3.8112947739097107,5.2,0.5334923873310424,0.5344737058547406,4.0,10.0
345,1.8697878245264292,0.5239875,6.713944518566132,192446.7773282528,3.8440075453567832,5.2,0.5352046662152271,0.5356126713638705,4.0,10.0
350,1.852457418292761,0.5292,6.721317364772161,195353.85205316544,3.8765449714057723,5.1,0.5330962200139087,0.5353295379465637,4.0,10.0
355,1.8888818521052597,0.530725,6.711464007695516,198226.16730570793,3.9086271113751097,5.1,0.5340523819637597,0.5342412337371469,4.0,10.0
360,1.8844473626464606,0.5302687500000001,6.7254943152268725,201046.1141731739,3.940709251344447,5.1,0.5344895384404648,0.5325204744294328,4.0,10.0
365,1.8697521109133959,0.5306000000000001,6.714208366473516,203810.55579447746,3.9727913913137844,5.1,0.5324387164381642,0.5307677946307023,4.0,10.0
370,1.9226289175450801,0.53085,6.732223987579346,206536.84860944748,4.004498174242067,5.0,0.5336343693173384,0.530592264770737,4.0,10.0
375,1.8711787402629851,0.53155625,6.717556667327881,209277.49818515778,4.035949743305185,5.0,0.5338773978162579,0.5348615620165182,4.0,10.0
380,1.896808918565512,0.5331125,6.718793821334839,212025.6305024624,4.067401312368303,5.0,0.5328350257166775,0.5346938698206187,4.0,10.0
385,1.9009056348353623,0.5295125,6.731598563989004,214733.65836191177,4.098852881431422,5.0,0.5335173707941462,0.5367650286148153,4.0,10.0
390,1.896053795143962,0.5326375,6.72768605351448,217418.97206950188,4.1299134579939425,4.9,0.5340325620825401,0.5347816171895056,4.0,10.0
395,1.9227414451539517,0.5302687500000001,6.724874730904897,220079.30742430687,4.160734516712031,4.9,0.5331738536565885,0.5361578723197469,4.0,10.0
400,1.871039956063032,0.5290375,6.7218730012575785,222731.23987221718,4.19155557543012,4.9,0.533214636546711,0.5347120048277993,4.0,10.0
405,1.8966577149927615,0.5285375,6.7283153136571245,225391.46909689903,4.222376634148208,4.9,0.5340163907647008,0.5339566840492047,4.0,10.0
410,1.8932799134403469,0.5278,6.722448148330053,228062.64323544502,4.252995199900179,4.8,0.5361142090622771,0.5348188389210491,4.0,10.0
415,1.887406111881137,0.53116875,6.738687006632487,230748.51960730553,4.283185808822028,4.8,0.5335116998967054,0.5336367870831373,4.0,10.0
420,1.8982463162392378,0.5267437500000001,6.741047801574071,233443.8349363804,4.313376417743877,4.8,0.5322659929525754,0.5349044929690518,4.0,10.0
425,1.9021318193525074,0.5284125,6.740615350008011,236126.5251646042,4.343567026665726,4.8,0.5343089223545802,0.5334181878552936,4.0,10.0
430,1.9208885747939348,0.53088125,6.7244286954402925,238785.33960986137,4.373757635587575,4.8,0.5351611424617144,0.5329321103747209,4.0,10.0
435,1.9116743851453066,0.52838125,6.7185980955759685,241368.81646466255,4.403530465868369,4.7,0.5355833020546837,0.5349812060434462,4.0,10.0
440,1.883460693433881,0.5306125,6.73134399453799,243904.5006530285,4.433090685532849,4.7,0.5342193906255338,0.5328480436365464,4.0,10.0
445,1.9156850446015596,0.5306312499999999,6.72736137509346,246456.8974120617,4.46265090519733,4.7,0.5340207213691852,0.5322747263829819,4.0,10.0
450,1.903847646713257,0.5325124999999999,6.73307491739591,248958.36109256744,4.492211124861812,4.7,0.5329187030962848,0.5341377144875641,4.0,10.0
455,1.908501483872533,0.53164375,6.7375166594982145,251427.14535593987,4.521771344526292,4.7,0.5338138630514493,0.5363362381889765,4.0,10.0
460,1.9242105059325694,0.53058125,6.733435589075088,253869.82185411453,4.550950860132667,4.6,0.5318965806625079,0.5333889433321852,4.0,10.0
465,1.8947081465274094,0.5285124999999999,6.7182435075442,256311.02406597137,4.5798807510653825,4.6,0.5347790829524165,0.5349284863188035,4.0,10.0
470,1.9109662126749754,0.5264437500000001,6.728417660792669,258759.24164128304,4.608810641998097,4.6,0.5342707151922359,0.5358464549032795,4.0,10.0
475,1.8995374612510203,0.52803125,6.70617582599322,261259.8891890049,4.637740532930812,4.6,0.5353342526098097,0.5318293019767022,4.0,10.0
480,1.9364399332553148,0.5275125,6.720920008420944,263808.5387740135,4.666670423863527,4.6,0.5316351230812258,0.531992216340137,4.0,10.0
485,1.8995909798890351,0.5301625,6.730336465438207,266395.9733390808,4.6955383966397894,4.5,0.5325577145941467,0.5325258713062703,4.0,10.0
490,1.9010651119053363,0.5295624999999999,6.7258121033509575,268182.95949816704,4.723838019355615,4.5,0.5320037657872936,0.5316788688523928,4.0,10.0
495,1.9394659157842398,0.5290999999999999,6.741785283883413,269961.0083041191,4.75213764207144,4.5,0.5303204435672657,0.5298760492116001,4.0,10.0
500,1.9241671875119208,0.5263125,6.718428295850754,271478.3751373291,4.780437264787264,4.5,0.5349073464616707,0.5324680527153371,4.0,10.0
