iter,loss,accuracy,convergence_score,time,epsilon,best_alpha,auc_attack_before,auc_attack_after,max_norm,noise_multiplier
5,2.1441752426326275,0.207975,1.155836671528717,1338.3404395580292,,,0.5284913862424685,0.5313620270482484,1.0,1.0
10,1.8387310549616813,0.34839375,0.7212012335037191,2770.9071176052094,,,0.525615782134881,0.5263125486301657,1.0,1.0
15,1.5683908723294735,0.43209375,0.3428108215952913,4203.177315235138,,,0.5258251309254903,0.5270380206001783,1.0,1.0
20,1.4232867781072855,0.48346875,0.3262205668414632,5639.546502828598,,,0.529678035727208,0.526552090284305,1.0,1.0
25,1.2917659401893617,0.53094375,0.4185119267553091,7069.274077653885,,,0.5407427653240823,0.5322160137546799,1.0,1.0
30,1.1659623969346284,0.5605125,0.5367958532025416,8533.046164512634,,,0.5572516000766818,0.5442186510345444,1.0,1.0
35,1.0427434489130973,0.5845750000000001,0.6672594712426265,10036.184918165207,,,0.5799480334927396,0.562162800333843,1.0,1.0
40,0.922500222735107,0.59508125,0.7998234264552593,11559.439613580704,,,0.6065992599725791,0.5817722434512899,1.0,1.0
45,0.8015132162719965,0.6053875,0.9162269222239653,13086.6591527462,,,0.6376264714985046,0.6061779440883406,1.0,1.0
50,0.7107396360486746,0.612825,1.012309958289067,14613.929767370224,,,0.6711365188542734,0.6336697446092534,1.0,1.0
55,0.6166796165518463,0.6098187500000001,1.0877423261602719,16149.660612106323,,,0.7048425794987504,0.663089747815402,1.0,1.0
60,0.5209802067838609,0.6058375,1.1397064171731472,17685.02268433571,,,0.7300516441162752,0.6911032245916097,1.0,1.0
65,0.43224087622947993,0.59964375,1.1679415052135786,19217.814188718796,,,0.7545075348756807,0.7173855833217634,1.0,1.0
70,0.35370322847738855,0.6003999999999999,1.1768280314902464,20753.260110616684,,,0.7814094258056307,0.7400298467651301,1.0,1.0
75,0.30307427421212196,0.5982000000000001,1.1750459954142571,22289.89367389679,,,0.8084172417687877,0.7601404279581955,1.0,1.0
80,0.2087201848393306,0.5971124999999999,1.1454003289341927,23839.776622772217,,,0.8311090558280396,0.7774733910021074,1.0,1.0
85,0.15292600813554602,0.59489375,1.1050712188084921,25271.735308647156,,,0.8454115142394074,0.7922703432969824,1.0,1.0
90,0.11337092970497907,0.5918749999999999,1.0664132277170817,26280.15164923668,,,0.8534476494514094,0.8020536127763431,1.0,1.0
95,0.09387694398174062,0.58993125,1.0253967635333538,27308.990931034088,,,0.8643580793424596,0.8113479225678751,1.0,1.0
100,0.07473156013875268,0.58779375,0.9842176454762618,28319.172409296036,,,0.8647951413386818,0.819832161850946,1.0,1.0
105,0.061662738601444285,0.5860875,0.9476298283785581,29342.468903303146,,,0.870887478744468,0.8262351144225418,1.0,1.0
