iter,loss,accuracy,convergence_score,time,epsilon,best_alpha,auc_attack_before,auc_attack_after,max_norm,noise_multiplier
5,2.135947309434414,0.232425,2.2325972100098928,3443.2132863998413,0.3572287347526937,31.0,0.5258758879595692,0.5251846308117223,4.0,10.0
10,2.066805005446076,0.27504375000000003,2.2171580235163373,6825.1358551979065,0.5235602095667183,23.0,0.5256518271170227,0.5260929531051659,4.0,10.0
15,1.9747243158519268,0.323975,2.2241435945034027,10235.268697977066,0.6550166189590789,19.0,0.5254220860349059,0.5271487908899127,4.0,10.0
20,1.9223349221050738,0.36083125,2.226750522851944,13646.897871255875,0.7681691168589213,17.0,0.5262668262253865,0.5285756446369754,4.0,10.0
25,1.8921813745051623,0.37193750000000003,2.2173550009727476,17052.6373565197,0.869508262559036,15.0,0.5244223743630354,0.5261440116507604,4.0,10.0
30,1.8731574285775423,0.38556250000000003,2.222728955745697,20438.586653470993,0.9620567606572388,14.0,0.5269767778828298,0.5277175958107013,4.0,10.0
35,1.857738310471177,0.40510625,2.220524666706721,23844.49236011505,1.048367084511379,13.0,0.5304686050284486,0.5266379687326763,4.0,10.0
40,1.8547779109328986,0.41719375,2.224185077349345,27218.032135486603,1.1302992708241562,12.0,0.5296233099893644,0.5292650515439365,4.0,10.0
45,1.8572808131575584,0.43010625,2.22070375084877,30611.923023223877,1.2060377185941955,12.0,0.5308282197856582,0.529232630877047,4.0,10.0
50,1.8834927301853894,0.4419875,2.213973907629649,33944.27954673767,1.2804128829467802,10.9,0.5269585431368278,0.5237430767253574,4.0,10.0
55,1.8643954910337925,0.45628124999999997,2.215019158522288,37393.34375190735,1.349172150382822,10.9,0.5298646453233726,0.5302794348952486,4.0,10.0
60,1.8580465849488972,0.46145625,2.223528105020523,40743.403057813644,1.4165915317199411,10.5,0.5298062164914108,0.5309261122300928,4.0,10.0
65,1.8588481031358242,0.4627,2.223411526282628,44169.20344424248,1.481685554645171,10.1,0.5285272279085245,0.5235263713670748,4.0,10.0
70,1.8800428200513124,0.46531875,2.2254395564397176,47515.88702297211,1.5446622583382217,9.8,0.5297220546723229,0.5269432633786257,4.0,10.0
75,1.8686846431344748,0.47250625,2.2162541369597117,50896.63203549385,1.6057836812502508,9.6,0.5288600903884569,0.526564549446608,4.0,10.0
80,1.874179559573531,0.47210625,2.2203672766685485,54302.9804816246,1.665179559818359,9.3,0.5334833500009883,0.5276166163555461,4.0,10.0
85,1.8658433079719545,0.47646875,2.2197711288928987,57669.751048088074,1.7230733003956018,9.1,0.5310864183202987,0.5299592733352867,4.0,10.0
90,1.8739390060305594,0.4844625,2.224620161453883,61022.559765815735,1.7795608317100504,8.9,0.5290199554602029,0.5269269009689201,4.0,10.0
95,1.8679191302508116,0.48564375000000004,2.2222471396128336,64124.143052339554,1.8347337052966977,8.7,0.5326915255022753,0.5294805985486916,4.0,10.0
100,1.8643796008080245,0.4899875,2.226623598734538,67265.54748487473,1.888693420539648,8.5,0.5300294895505048,0.5279873896030769,4.0,10.0
105,1.8706273522228,0.49329375,2.2234771649042764,70378.71613287926,1.9415528147143648,8.3,0.5285248832585647,0.5286751510158851,4.0,10.0
110,1.8632335551083088,0.49485,2.2224587897459664,73490.89374136925,1.993437691724504,8.1,0.5285882909545766,0.5300581735300897,4.0,10.0
115,1.8771392792463302,0.4955125,2.224759179353714,76618.30888223648,2.0442555563135363,8.0,0.532157435717978,0.5269878076428012,4.0,10.0
120,1.8751235783100129,0.49827499999999997,2.21924035747846,79726.35474133492,2.094251498174505,7.9,0.5297019343078524,0.5321266423181104,4.0,10.0
125,1.8642862200737,0.5017625000000001,2.223036722342173,82822.43358898163,2.1433620672939186,7.7,0.5330170830369683,0.5309900883475278,4.0,10.0
130,1.8807126894593238,0.5047312500000001,2.2277075946331024,85893.93991422653,2.1916516728013913,7.6,0.5331495365605613,0.5323933381729938,4.0,10.0
135,1.9034779097884893,0.5083500000000001,2.2166846871376036,88991.30104398727,2.2392085955848913,7.5,0.5300218931607296,0.5292942089018848,4.0,10.0
140,1.8818688925355673,0.50684375,2.220752775669098,92124.62443876266,2.2860587615417485,7.4,0.5283952539817662,0.5264630159767462,4.0,10.0
145,1.8657486584037541,0.5074687499999999,2.2159882048765818,95224.80476641655,2.3322297714027003,7.3,0.5273917975308691,0.5268718595823734,4.0,10.0
150,1.8589149750769138,0.5124437500000001,2.2244365513324738,98306.76848697662,2.377751038279489,7.2,0.528307622306187,0.5284942667359371,4.0,10.0
155,1.8581932786852122,0.51026875,2.2230602979660032,101396.42759799957,2.422653938900403,7.1,0.5282364319908679,0.5277359544593019,4.0,10.0
160,1.8539224270731212,0.5129812499999999,2.2241670270760854,104506.63168025017,2.4669719802000736,7.0,0.5291495455573705,0.5277687637119537,4.0,10.0
165,1.8446712002158165,0.513325,2.221629649400711,107645.93780231476,2.510740983009487,6.9,0.5293196315855889,0.5290896536768692,4.0,10.0
170,1.8623313896358011,0.5124,2.21976553996404,110763.06489825249,2.55399928513496,6.8,0.5265457614802034,0.5307672992908203,4.0,10.0
175,1.8414239503443242,0.5137499999999999,2.225605493783951,113894.81333065033,2.596787966064259,6.7,0.529387850939487,0.5270809372935626,4.0,10.0
180,1.8412993118166923,0.5140374999999999,2.2200740893681843,117013.04877209663,2.6389674861888635,6.7,0.5306923619716396,0.5277363575449031,4.0,10.0
185,1.8375287469476462,0.51475625,2.2231229484081267,120081.00906896591,2.680699074659324,6.6,0.5312121195240069,0.5307781255790093,4.0,10.0
190,1.8317033227533104,0.51636875,2.2243938942750296,123150.16491532326,2.7220525103831803,6.5,0.5316993062419221,0.5294777250964154,4.0,10.0
195,1.825492202863097,0.51535625,2.223897459109624,126253.58621430397,2.762969008362512,6.5,0.5308845171687023,0.5298251284067297,4.0,10.0
200,1.8405851177871226,0.51824375,2.22260955174764,129399.19823980331,2.803363784039909,6.4,0.5322617032254214,0.533557887396432,4.0,10.0
205,1.8583840988576412,0.5166125,2.2225946644941965,132514.87569141388,2.843486211139938,6.3,0.5311426009983997,0.5317111366359788,4.0,10.0
210,1.8564177647233011,0.51885625,2.2165745894114175,135639.1901011467,2.8831399299089746,6.3,0.5356513782955832,0.5353141057834608,4.0,10.0
215,1.8535743210464717,0.51905,2.2169039924939473,138753.85336995125,2.922417842127976,6.2,0.5317624231645698,0.5318618138479414,4.0,10.0
220,1.8427741494029761,0.52094375,2.2238500197728475,141839.120855093,2.9614402623638942,6.2,0.5324305641177479,0.5344832558266617,4.0,10.0
225,1.836998987570405,0.5228062499999999,2.2281853755315146,144915.29291939735,2.999937643431321,6.1,0.5329630428059178,0.532867940952302,4.0,10.0
230,1.8524218190461397,0.5221312499999999,2.2207371552785236,148102.6858844757,3.0383288258325964,6.1,0.5302565402771224,0.5299350728785082,4.0,10.0
235,1.8814106177538634,0.52329375,2.223667685190837,151161.9317855835,3.076114870717753,6.0,0.5281913197962363,0.5292942808370368,4.0,10.0
240,1.8755929958075286,0.5220875,2.219640401999156,154280.9860010147,3.113874875972265,6.0,0.5332138233213908,0.5316406547754435,4.0,10.0
245,1.8731450639665126,0.5248375,2.224076650540034,157377.03010821342,3.1510245313540306,5.9,0.5326237375059097,0.5312548511079973,4.0,10.0
250,1.8668864849954843,0.5161125,2.223692238330841,160503.00714230537,3.1881534201377297,5.9,0.531071363356278,0.5352534561905351,4.0,10.0
255,1.8528285697102547,0.51509375,2.2177721500396728,163665.6333975792,3.2247479935450976,5.8,0.5322154184243899,0.5331392875956257,4.0,10.0
260,1.833361665159464,0.5194375,2.2193343500296274,166779.96130919456,3.2612458265224573,5.8,0.5321026727589068,0.5347103334564249,4.0,10.0
265,1.8478805124759674,0.52533125,2.229992651939392,169898.89562654495,3.297373674123603,5.7,0.5297983213605573,0.5322390904373947,4.0,10.0
270,1.8431968189775945,0.51940625,2.2298745652039846,173040.47165107727,3.333240511947892,5.7,0.5329795376142789,0.5333313302384194,4.0,10.0
275,1.8228153407573702,0.52455,2.2164572278658548,176155.80353474617,3.3689978170967176,5.6,0.5333785100214758,0.5333273223067272,4.0,10.0
280,1.8368826646357777,0.524675,2.2174181818962095,179242.32373666763,3.40423372040874,5.6,0.5317704393953511,0.5319765936027876,4.0,10.0
285,1.863384110853076,0.52551875,2.2260350863138836,182338.61810564995,3.4394696237207625,5.6,0.5310389611528341,0.5313506106202753,4.0,10.0
290,1.8508263278752568,0.5250375,2.2137864311536153,185389.88704895973,3.474330406976792,5.5,0.5306372126070666,0.532021575337315,4.0,10.0
295,1.854177562892437,0.52498125,2.2193863868713377,188479.2959845066,3.5089354364068206,5.5,0.5324829326599256,0.5337883119094597,4.0,10.0
300,1.8487105756998061,0.5218937499999999,2.2195845365524294,191613.27487158775,3.5435404658368492,5.5,0.5330368391098903,0.5383853248491542,4.0,10.0
305,1.833192915096879,0.52415,2.2122295061747232,194736.17707276344,3.5776194594820474,5.4,0.5363101292048819,0.5381382145932903,4.0,10.0
310,1.843394983187318,0.5217437500000001,2.2195213516553243,197844.97194170952,3.611593675648059,5.4,0.5355753490574227,0.5428127015878611,4.0,10.0
315,1.847487210482359,0.519825,2.2181443174680076,200902.61577510834,3.645567891814071,5.4,0.535227695353617,0.539924024889507,4.0,10.0
320,1.8407943207770587,0.5165937500000001,2.21398939092954,203958.3064725399,3.6789906926292604,5.3,0.5334031924218048,0.5368703817812106,4.0,10.0
325,1.8295759599655868,0.52115,2.2162964284420013,207027.22888994217,3.7123341561382706,5.3,0.5340758912738038,0.5393484327279137,4.0,10.0
330,1.8002926465123892,0.5220375,2.2286899348100024,210102.28754091263,3.74567761964728,5.3,0.5331068056112449,0.5365764234593452,4.0,10.0
335,1.820821713656187,0.5252625,2.2239442924658457,213214.60228443146,3.778582002462638,5.2,0.5313076167148553,0.5338052863293219,4.0,10.0
340,1.8255028072744608,0.5242125,2.226200960079829,216307.19323325157,3.8112947739097107,5.2,0.532480725500643,0.5332778472519598,4.0,10.0
345,1.8023904960602524,0.5263875,2.2211024284362795,219429.1513595581,3.8440075453567832,5.2,0.5363809676551304,0.5337517947043102,4.0,10.0
350,1.815040634199977,0.5247437500000001,2.2249553124109904,222570.07838010788,3.8765449714057723,5.1,0.5323618551833604,0.5349233452073066,4.0,10.0
355,1.8201523944735527,0.5258562499999999,2.2222935696442923,225645.9274134636,3.9086271113751097,5.1,0.536156217514891,0.5350894962244668,4.0,10.0
360,1.8282424073666335,0.5248875,2.221020350853602,228915.0305788517,3.940709251344447,5.1,0.5334113053603267,0.5364789489158196,4.0,10.0
365,1.845061970502138,0.5282562500000001,2.2163777470588686,232039.2508380413,3.9727913913137844,5.1,0.5345999949217307,0.5319029991854999,4.0,10.0
370,1.8327931530773638,0.5294875,2.227282218138377,235170.44275140762,4.004498174242067,5.0,0.5310010154601095,0.5328306219311968,4.0,10.0
375,1.8122629061341287,0.52795,2.227102718750636,237920.98332548141,4.035949743305185,5.0,0.5327906937839828,0.5340229282056603,4.0,10.0
380,1.819160707294941,0.5312999999999999,2.2229527215162914,240680.3448688984,4.067401312368303,5.0,0.53119820604533,0.5309277212718501,4.0,10.0
385,1.8265770118683577,0.5300375,2.2256153841813404,243495.9397110939,4.098852881431422,5.0,0.5309973018007552,0.5319679519792715,4.0,10.0
390,1.8366295374929906,0.5293187500000001,2.2200698713461557,246270.58537483215,4.1299134579939425,4.9,0.5340198250552759,0.5319087626444661,4.0,10.0
395,1.8340846285223962,0.53126875,2.224058413505554,248992.59393191338,4.160734516712031,4.9,0.5310785880979427,0.5302041499988619,4.0,10.0
400,1.8401005066931246,0.5267875,2.2185542384783425,251727.92058563232,4.19155557543012,4.9,0.5306373256220953,0.5346523420830374,4.0,10.0
405,1.8427490148693324,0.5291874999999999,2.2208353221416473,254479.89123106003,4.222376634148208,4.9,0.532623786182892,0.5315908394975037,4.0,10.0
410,1.8449208367615937,0.5273375,2.2293110450108844,257237.21760320663,4.252995199900179,4.8,0.5342001573598547,0.5329821312681253,4.0,10.0
415,1.8079251922667026,0.52999375,2.22449969847997,259989.9201669693,4.283185808822028,4.8,0.5317851792124338,0.5304348998402353,4.0,10.0
420,1.8416096862405538,0.532075,2.2300917148590087,262772.9955422878,4.313376417743877,4.8,0.5335955846922569,0.5311910418706868,4.0,10.0
425,1.8419405370950699,0.53051875,2.2317299962043764,265588.0817835331,4.343567026665726,4.8,0.5320994120335043,0.5314866486359544,4.0,10.0
430,1.8268225990235805,0.5309312500000001,2.220637967189153,268590.5745205879,4.373757635587575,4.8,0.5318888336974874,0.5320948154249361,4.0,10.0
435,1.852876702696085,0.5324625000000001,2.229042834043503,271706.6241567135,4.403530465868369,4.7,0.5319035115192196,0.5315661316096916,4.0,10.0
440,1.8742901787161828,0.529975,2.2209161718686423,274817.0962753296,4.433090685532849,4.7,0.5333767108073262,0.534907962484497,4.0,10.0
445,1.8392660170793533,0.5290374999999999,2.22827988465627,277885.4400844574,4.46265090519733,4.7,0.5333462693665723,0.5347464120291865,4.0,10.0
450,1.8289069194346668,0.5299,2.2288072685400646,280944.9786837101,4.492211124861812,4.7,0.5338509268179585,0.5358421867161749,4.0,10.0
455,1.7961466670036317,0.5292875,2.2219346423943835,283990.5302910805,4.521771344526292,4.7,0.5362824921901259,0.5353890774757235,4.0,10.0
460,1.8287340134382248,0.5323687500000001,2.225022482872009,287054.0177061558,4.550950860132667,4.6,0.5363058395721612,0.5351743481345252,4.0,10.0
465,1.8278430722653867,0.5323437499999999,2.213342054684957,290141.48423194885,4.5798807510653825,4.6,0.5379355527089679,0.5388578019825416,4.0,10.0
470,1.8419148791581392,0.53299375,2.224210077524185,293243.2170717716,4.608810641998097,4.6,0.535245707274822,0.5354899159012853,4.0,10.0
475,1.8398650318384169,0.53413125,2.2188206613063812,295923.84386730194,4.637740532930812,4.6,0.5333481603589942,0.5344144392781311,4.0,10.0
480,1.8321197051554918,0.5318375,2.2274537007013957,298192.2329249382,4.666670423863527,4.6,0.5359557785977864,0.5366761309409718,4.0,10.0
485,1.84977301992476,0.53341875,2.2240568935871123,300465.82608389854,4.6955383966397894,4.5,0.5347472370293334,0.5338297982477487,4.0,10.0
490,1.8362241610884666,0.53468125,2.222388849655787,302777.17953920364,4.723838019355615,4.5,0.5375443591446123,0.5363720813021029,4.0,10.0
495,1.8322011895477772,0.53054375,2.2309242884318032,305084.6270375252,4.75213764207144,4.5,0.5358735230437697,0.5360027184768429,4.0,10.0
500,1.8383637864142657,0.5269625,2.223449065287908,307388.4771795273,4.780437264787264,4.5,0.5368285128614546,0.5379964340662337,4.0,10.0
